('C:\\Users\\vitor\\Documents\\Code projects\\Locus\\build\\Locus\\PYZ-00.pyz',
 [('multiprocessing.popen_fork',
   'C:\\Users\\vitor\\AppData\\Local\\Programs\\Python\\Python36\\lib\\multiprocessing\\popen_fork.py',
   'PYMODULE'),
  ('multiprocessing.connection',
   'C:\\Users\\vitor\\AppData\\Local\\Programs\\Python\\Python36\\lib\\multiprocessing\\connection.py',
   'PYMODULE'),
  ('multiprocessing.resource_sharer',
   'C:\\Users\\vitor\\AppData\\Local\\Programs\\Python\\Python36\\lib\\multiprocessing\\resource_sharer.py',
   'PYMODULE'),
  ('multiprocessing.process',
   'C:\\Users\\vitor\\AppData\\Local\\Programs\\Python\\Python36\\lib\\multiprocessing\\process.py',
   'PYMODULE'),
  ('xmlrpc.client',
   'C:\\Users\\vitor\\AppData\\Local\\Programs\\Python\\Python36\\lib\\xmlrpc\\client.py',
   'PYMODULE'),
  ('xmlrpc',
   'C:\\Users\\vitor\\AppData\\Local\\Programs\\Python\\Python36\\lib\\xmlrpc\\__init__.py',
   'PYMODULE'),
  ('decimal',
   'C:\\Users\\vitor\\AppData\\Local\\Programs\\Python\\Python36\\lib\\decimal.py',
   'PYMODULE'),
  ('_pydecimal',
   'C:\\Users\\vitor\\AppData\\Local\\Programs\\Python\\Python36\\lib\\_pydecimal.py',
   'PYMODULE'),
  ('numbers',
   'C:\\Users\\vitor\\AppData\\Local\\Programs\\Python\\Python36\\lib\\numbers.py',
   'PYMODULE'),
  ('hmac',
   'C:\\Users\\vitor\\AppData\\Local\\Programs\\Python\\Python36\\lib\\hmac.py',
   'PYMODULE'),
  ('multiprocessing.context',
   'C:\\Users\\vitor\\AppData\\Local\\Programs\\Python\\Python36\\lib\\multiprocessing\\context.py',
   'PYMODULE'),
  ('multiprocessing.popen_forkserver',
   'C:\\Users\\vitor\\AppData\\Local\\Programs\\Python\\Python36\\lib\\multiprocessing\\popen_forkserver.py',
   'PYMODULE'),
  ('multiprocessing.popen_spawn_posix',
   'C:\\Users\\vitor\\AppData\\Local\\Programs\\Python\\Python36\\lib\\multiprocessing\\popen_spawn_posix.py',
   'PYMODULE'),
  ('multiprocessing.semaphore_tracker',
   'C:\\Users\\vitor\\AppData\\Local\\Programs\\Python\\Python36\\lib\\multiprocessing\\semaphore_tracker.py',
   'PYMODULE'),
  ('multiprocessing.forkserver',
   'C:\\Users\\vitor\\AppData\\Local\\Programs\\Python\\Python36\\lib\\multiprocessing\\forkserver.py',
   'PYMODULE'),
  ('multiprocessing.sharedctypes',
   'C:\\Users\\vitor\\AppData\\Local\\Programs\\Python\\Python36\\lib\\multiprocessing\\sharedctypes.py',
   'PYMODULE'),
  ('multiprocessing.heap',
   'C:\\Users\\vitor\\AppData\\Local\\Programs\\Python\\Python36\\lib\\multiprocessing\\heap.py',
   'PYMODULE'),
  ('ctypes',
   'C:\\Users\\vitor\\AppData\\Local\\Programs\\Python\\Python36\\lib\\ctypes\\__init__.py',
   'PYMODULE'),
  ('ctypes.wintypes',
   'C:\\Users\\vitor\\AppData\\Local\\Programs\\Python\\Python36\\lib\\ctypes\\wintypes.py',
   'PYMODULE'),
  ('ctypes._endian',
   'C:\\Users\\vitor\\AppData\\Local\\Programs\\Python\\Python36\\lib\\ctypes\\_endian.py',
   'PYMODULE'),
  ('multiprocessing.pool',
   'C:\\Users\\vitor\\AppData\\Local\\Programs\\Python\\Python36\\lib\\multiprocessing\\pool.py',
   'PYMODULE'),
  ('multiprocessing.dummy',
   'C:\\Users\\vitor\\AppData\\Local\\Programs\\Python\\Python36\\lib\\multiprocessing\\dummy\\__init__.py',
   'PYMODULE'),
  ('multiprocessing.dummy.connection',
   'C:\\Users\\vitor\\AppData\\Local\\Programs\\Python\\Python36\\lib\\multiprocessing\\dummy\\connection.py',
   'PYMODULE'),
  ('queue',
   'C:\\Users\\vitor\\AppData\\Local\\Programs\\Python\\Python36\\lib\\queue.py',
   'PYMODULE'),
  ('multiprocessing.queues',
   'C:\\Users\\vitor\\AppData\\Local\\Programs\\Python\\Python36\\lib\\multiprocessing\\queues.py',
   'PYMODULE'),
  ('multiprocessing.synchronize',
   'C:\\Users\\vitor\\AppData\\Local\\Programs\\Python\\Python36\\lib\\multiprocessing\\synchronize.py',
   'PYMODULE'),
  ('multiprocessing.managers',
   'C:\\Users\\vitor\\AppData\\Local\\Programs\\Python\\Python36\\lib\\multiprocessing\\managers.py',
   'PYMODULE'),
  ('multiprocessing.reduction',
   'C:\\Users\\vitor\\AppData\\Local\\Programs\\Python\\Python36\\lib\\multiprocessing\\reduction.py',
   'PYMODULE'),
  ('multiprocessing.util',
   'C:\\Users\\vitor\\AppData\\Local\\Programs\\Python\\Python36\\lib\\multiprocessing\\util.py',
   'PYMODULE'),
  ('multiprocessing.popen_spawn_win32',
   'C:\\Users\\vitor\\AppData\\Local\\Programs\\Python\\Python36\\lib\\multiprocessing\\popen_spawn_win32.py',
   'PYMODULE'),
  ('multiprocessing.spawn',
   'C:\\Users\\vitor\\AppData\\Local\\Programs\\Python\\Python36\\lib\\multiprocessing\\spawn.py',
   'PYMODULE'),
  ('runpy',
   'C:\\Users\\vitor\\AppData\\Local\\Programs\\Python\\Python36\\lib\\runpy.py',
   'PYMODULE'),
  ('multiprocessing',
   'C:\\Users\\vitor\\AppData\\Local\\Programs\\Python\\Python36\\lib\\multiprocessing\\__init__.py',
   'PYMODULE'),
  ('pkg_resources',
   'c:\\users\\vitor\\documents\\code '
   'projects\\locus\\pyenv\\lib\\site-packages\\pkg_resources\\__init__.py',
   'PYMODULE'),
  ('pkg_resources._vendor',
   'c:\\users\\vitor\\documents\\code '
   'projects\\locus\\pyenv\\lib\\site-packages\\pkg_resources\\_vendor\\__init__.py',
   'PYMODULE'),
  ('pkg_resources._vendor.packaging.utils',
   'c:\\users\\vitor\\documents\\code '
   'projects\\locus\\pyenv\\lib\\site-packages\\pkg_resources\\_vendor\\packaging\\utils.py',
   'PYMODULE'),
  ('pkg_resources._vendor.packaging.specifiers',
   'c:\\users\\vitor\\documents\\code '
   'projects\\locus\\pyenv\\lib\\site-packages\\pkg_resources\\_vendor\\packaging\\specifiers.py',
   'PYMODULE'),
  ('pkg_resources._vendor.six',
   'c:\\users\\vitor\\documents\\code '
   'projects\\locus\\pyenv\\lib\\site-packages\\pkg_resources\\_vendor\\six.py',
   'PYMODULE'),
  ('pkg_resources._vendor.packaging.requirements',
   'c:\\users\\vitor\\documents\\code '
   'projects\\locus\\pyenv\\lib\\site-packages\\pkg_resources\\_vendor\\packaging\\requirements.py',
   'PYMODULE'),
  ('pkg_resources._vendor.pyparsing',
   'c:\\users\\vitor\\documents\\code '
   'projects\\locus\\pyenv\\lib\\site-packages\\pkg_resources\\_vendor\\pyparsing.py',
   'PYMODULE'),
  ('uuid',
   'C:\\Users\\vitor\\AppData\\Local\\Programs\\Python\\Python36\\lib\\uuid.py',
   'PYMODULE'),
  ('ctypes.util',
   'C:\\Users\\vitor\\AppData\\Local\\Programs\\Python\\Python36\\lib\\ctypes\\util.py',
   'PYMODULE'),
  ('ctypes.macholib.dyld',
   'C:\\Users\\vitor\\AppData\\Local\\Programs\\Python\\Python36\\lib\\ctypes\\macholib\\dyld.py',
   'PYMODULE'),
  ('ctypes.macholib',
   'C:\\Users\\vitor\\AppData\\Local\\Programs\\Python\\Python36\\lib\\ctypes\\macholib\\__init__.py',
   'PYMODULE'),
  ('ctypes.macholib.dylib',
   'C:\\Users\\vitor\\AppData\\Local\\Programs\\Python\\Python36\\lib\\ctypes\\macholib\\dylib.py',
   'PYMODULE'),
  ('ctypes.macholib.framework',
   'C:\\Users\\vitor\\AppData\\Local\\Programs\\Python\\Python36\\lib\\ctypes\\macholib\\framework.py',
   'PYMODULE'),
  ('pkg_resources._vendor.packaging.version',
   'c:\\users\\vitor\\documents\\code '
   'projects\\locus\\pyenv\\lib\\site-packages\\pkg_resources\\_vendor\\packaging\\version.py',
   'PYMODULE'),
  ('pkg_resources._vendor.packaging._compat',
   'c:\\users\\vitor\\documents\\code '
   'projects\\locus\\pyenv\\lib\\site-packages\\pkg_resources\\_vendor\\packaging\\_compat.py',
   'PYMODULE'),
  ('pkg_resources._vendor.packaging',
   'c:\\users\\vitor\\documents\\code '
   'projects\\locus\\pyenv\\lib\\site-packages\\pkg_resources\\_vendor\\packaging\\__init__.py',
   'PYMODULE'),
  ('pkg_resources._vendor.packaging.markers',
   'c:\\users\\vitor\\documents\\code '
   'projects\\locus\\pyenv\\lib\\site-packages\\pkg_resources\\_vendor\\packaging\\markers.py',
   'PYMODULE'),
  ('pkg_resources._vendor.packaging.__about__',
   'c:\\users\\vitor\\documents\\code '
   'projects\\locus\\pyenv\\lib\\site-packages\\pkg_resources\\_vendor\\packaging\\__about__.py',
   'PYMODULE'),
  ('pkg_resources._vendor.appdirs',
   'c:\\users\\vitor\\documents\\code '
   'projects\\locus\\pyenv\\lib\\site-packages\\pkg_resources\\_vendor\\appdirs.py',
   'PYMODULE'),
  ('pkg_resources._vendor.packaging._structures',
   'c:\\users\\vitor\\documents\\code '
   'projects\\locus\\pyenv\\lib\\site-packages\\pkg_resources\\_vendor\\packaging\\_structures.py',
   'PYMODULE'),
  ('distutils.util',
   'C:\\Users\\vitor\\AppData\\Local\\Programs\\Python\\Python36\\lib\\distutils\\util.py',
   'PYMODULE'),
  ('distutils.filelist',
   'C:\\Users\\vitor\\AppData\\Local\\Programs\\Python\\Python36\\lib\\distutils\\filelist.py',
   'PYMODULE'),
  ('distutils.debug',
   'C:\\Users\\vitor\\AppData\\Local\\Programs\\Python\\Python36\\lib\\distutils\\debug.py',
   'PYMODULE'),
  ('distutils.file_util',
   'C:\\Users\\vitor\\AppData\\Local\\Programs\\Python\\Python36\\lib\\distutils\\file_util.py',
   'PYMODULE'),
  ('distutils.dir_util',
   'C:\\Users\\vitor\\AppData\\Local\\Programs\\Python\\Python36\\lib\\distutils\\dir_util.py',
   'PYMODULE'),
  ('lib2to3.refactor',
   'C:\\Users\\vitor\\AppData\\Local\\Programs\\Python\\Python36\\lib\\lib2to3\\refactor.py',
   'PYMODULE'),
  ('lib2to3.btm_matcher',
   'C:\\Users\\vitor\\AppData\\Local\\Programs\\Python\\Python36\\lib\\lib2to3\\btm_matcher.py',
   'PYMODULE'),
  ('lib2to3.btm_utils',
   'C:\\Users\\vitor\\AppData\\Local\\Programs\\Python\\Python36\\lib\\lib2to3\\btm_utils.py',
   'PYMODULE'),
  ('lib2to3.pgen2.grammar',
   'C:\\Users\\vitor\\AppData\\Local\\Programs\\Python\\Python36\\lib\\lib2to3\\pgen2\\grammar.py',
   'PYMODULE'),
  ('lib2to3.pygram',
   'C:\\Users\\vitor\\AppData\\Local\\Programs\\Python\\Python36\\lib\\lib2to3\\pygram.py',
   'PYMODULE'),
  ('lib2to3.pytree',
   'C:\\Users\\vitor\\AppData\\Local\\Programs\\Python\\Python36\\lib\\lib2to3\\pytree.py',
   'PYMODULE'),
  ('lib2to3',
   'C:\\Users\\vitor\\AppData\\Local\\Programs\\Python\\Python36\\lib\\lib2to3\\__init__.py',
   'PYMODULE'),
  ('lib2to3.patcomp',
   'C:\\Users\\vitor\\AppData\\Local\\Programs\\Python\\Python36\\lib\\lib2to3\\patcomp.py',
   'PYMODULE'),
  ('lib2to3.pgen2.parse',
   'C:\\Users\\vitor\\AppData\\Local\\Programs\\Python\\Python36\\lib\\lib2to3\\pgen2\\parse.py',
   'PYMODULE'),
  ('lib2to3.pgen2.literals',
   'C:\\Users\\vitor\\AppData\\Local\\Programs\\Python\\Python36\\lib\\lib2to3\\pgen2\\literals.py',
   'PYMODULE'),
  ('lib2to3.fixer_util',
   'C:\\Users\\vitor\\AppData\\Local\\Programs\\Python\\Python36\\lib\\lib2to3\\fixer_util.py',
   'PYMODULE'),
  ('lib2to3.pgen2.token',
   'C:\\Users\\vitor\\AppData\\Local\\Programs\\Python\\Python36\\lib\\lib2to3\\pgen2\\token.py',
   'PYMODULE'),
  ('lib2to3.pgen2.tokenize',
   'C:\\Users\\vitor\\AppData\\Local\\Programs\\Python\\Python36\\lib\\lib2to3\\pgen2\\tokenize.py',
   'PYMODULE'),
  ('lib2to3.pgen2.driver',
   'C:\\Users\\vitor\\AppData\\Local\\Programs\\Python\\Python36\\lib\\lib2to3\\pgen2\\driver.py',
   'PYMODULE'),
  ('lib2to3.pgen2.pgen',
   'C:\\Users\\vitor\\AppData\\Local\\Programs\\Python\\Python36\\lib\\lib2to3\\pgen2\\pgen.py',
   'PYMODULE'),
  ('lib2to3.pgen2',
   'C:\\Users\\vitor\\AppData\\Local\\Programs\\Python\\Python36\\lib\\lib2to3\\pgen2\\__init__.py',
   'PYMODULE'),
  ('distutils.sysconfig',
   'C:\\Users\\vitor\\AppData\\Local\\Programs\\Python\\Python36\\lib\\distutils\\sysconfig.py',
   'PYMODULE'),
  ('distutils.text_file',
   'C:\\Users\\vitor\\AppData\\Local\\Programs\\Python\\Python36\\lib\\distutils\\text_file.py',
   'PYMODULE'),
  ('_osx_support',
   'C:\\Users\\vitor\\AppData\\Local\\Programs\\Python\\Python36\\lib\\_osx_support.py',
   'PYMODULE'),
  ('distutils.log',
   'C:\\Users\\vitor\\AppData\\Local\\Programs\\Python\\Python36\\lib\\distutils\\log.py',
   'PYMODULE'),
  ('distutils',
   'C:\\Users\\vitor\\AppData\\Local\\Programs\\Python\\Python36\\lib\\distutils\\__init__.py',
   'PYMODULE'),
  ('distutils.archive_util',
   'C:\\Users\\vitor\\AppData\\Local\\Programs\\Python\\Python36\\lib\\distutils\\archive_util.py',
   'PYMODULE'),
  ('distutils.ccompiler',
   'C:\\Users\\vitor\\AppData\\Local\\Programs\\Python\\Python36\\lib\\distutils\\ccompiler.py',
   'PYMODULE'),
  ('distutils.fancy_getopt',
   'C:\\Users\\vitor\\AppData\\Local\\Programs\\Python\\Python36\\lib\\distutils\\fancy_getopt.py',
   'PYMODULE'),
  ('distutils.spawn',
   'C:\\Users\\vitor\\AppData\\Local\\Programs\\Python\\Python36\\lib\\distutils\\spawn.py',
   'PYMODULE'),
  ('distutils.dep_util',
   'C:\\Users\\vitor\\AppData\\Local\\Programs\\Python\\Python36\\lib\\distutils\\dep_util.py',
   'PYMODULE'),
  ('distutils.errors',
   'C:\\Users\\vitor\\AppData\\Local\\Programs\\Python\\Python36\\lib\\distutils\\errors.py',
   'PYMODULE'),
  ('sysconfig',
   'C:\\Users\\vitor\\AppData\\Local\\Programs\\Python\\Python36\\lib\\sysconfig.py',
   'PYMODULE'),
  ('pkg_resources.py31compat',
   'c:\\users\\vitor\\documents\\code '
   'projects\\locus\\pyenv\\lib\\site-packages\\pkg_resources\\py31compat.py',
   'PYMODULE'),
  ('pkg_resources.extern',
   'c:\\users\\vitor\\documents\\code '
   'projects\\locus\\pyenv\\lib\\site-packages\\pkg_resources\\extern\\__init__.py',
   'PYMODULE'),
  ('imp',
   'C:\\Users\\vitor\\AppData\\Local\\Programs\\Python\\Python36\\lib\\imp.py',
   'PYMODULE'),
  ('_strptime',
   'C:\\Users\\vitor\\AppData\\Local\\Programs\\Python\\Python36\\lib\\_strptime.py',
   'PYMODULE'),
  ('datetime',
   'C:\\Users\\vitor\\AppData\\Local\\Programs\\Python\\Python36\\lib\\datetime.py',
   'PYMODULE'),
  ('ntpath',
   'C:\\Users\\vitor\\AppData\\Local\\Programs\\Python\\Python36\\lib\\ntpath.py',
   'PYMODULE'),
  ('stringprep',
   'C:\\Users\\vitor\\AppData\\Local\\Programs\\Python\\Python36\\lib\\stringprep.py',
   'PYMODULE'),
  ('fnmatch',
   'C:\\Users\\vitor\\AppData\\Local\\Programs\\Python\\Python36\\lib\\fnmatch.py',
   'PYMODULE'),
  ('struct',
   'C:\\Users\\vitor\\AppData\\Local\\Programs\\Python\\Python36\\lib\\struct.py',
   'PYMODULE'),
  ('_compat_pickle',
   'C:\\Users\\vitor\\AppData\\Local\\Programs\\Python\\Python36\\lib\\_compat_pickle.py',
   'PYMODULE'),
  ('__future__',
   'C:\\Users\\vitor\\AppData\\Local\\Programs\\Python\\Python36\\lib\\__future__.py',
   'PYMODULE'),
  ('difflib',
   'C:\\Users\\vitor\\AppData\\Local\\Programs\\Python\\Python36\\lib\\difflib.py',
   'PYMODULE'),
  ('ast',
   'C:\\Users\\vitor\\AppData\\Local\\Programs\\Python\\Python36\\lib\\ast.py',
   'PYMODULE'),
  ('inspect',
   'C:\\Users\\vitor\\AppData\\Local\\Programs\\Python\\Python36\\lib\\inspect.py',
   'PYMODULE'),
  ('cmd',
   'C:\\Users\\vitor\\AppData\\Local\\Programs\\Python\\Python36\\lib\\cmd.py',
   'PYMODULE'),
  ('bdb',
   'C:\\Users\\vitor\\AppData\\Local\\Programs\\Python\\Python36\\lib\\bdb.py',
   'PYMODULE'),
  ('opcode',
   'C:\\Users\\vitor\\AppData\\Local\\Programs\\Python\\Python36\\lib\\opcode.py',
   'PYMODULE'),
  ('dis',
   'C:\\Users\\vitor\\AppData\\Local\\Programs\\Python\\Python36\\lib\\dis.py',
   'PYMODULE'),
  ('codeop',
   'C:\\Users\\vitor\\AppData\\Local\\Programs\\Python\\Python36\\lib\\codeop.py',
   'PYMODULE'),
  ('code',
   'C:\\Users\\vitor\\AppData\\Local\\Programs\\Python\\Python36\\lib\\code.py',
   'PYMODULE'),
  ('glob',
   'C:\\Users\\vitor\\AppData\\Local\\Programs\\Python\\Python36\\lib\\glob.py',
   'PYMODULE'),
  ('shlex',
   'C:\\Users\\vitor\\AppData\\Local\\Programs\\Python\\Python36\\lib\\shlex.py',
   'PYMODULE'),
  ('importlib._bootstrap',
   'C:\\Users\\vitor\\AppData\\Local\\Programs\\Python\\Python36\\lib\\importlib\\_bootstrap.py',
   'PYMODULE'),
  ('importlib._bootstrap_external',
   'C:\\Users\\vitor\\AppData\\Local\\Programs\\Python\\Python36\\lib\\importlib\\_bootstrap_external.py',
   'PYMODULE'),
  ('importlib.machinery',
   'C:\\Users\\vitor\\AppData\\Local\\Programs\\Python\\Python36\\lib\\importlib\\machinery.py',
   'PYMODULE'),
  ('importlib.util',
   'C:\\Users\\vitor\\AppData\\Local\\Programs\\Python\\Python36\\lib\\importlib\\util.py',
   'PYMODULE'),
  ('importlib.abc',
   'C:\\Users\\vitor\\AppData\\Local\\Programs\\Python\\Python36\\lib\\importlib\\abc.py',
   'PYMODULE'),
  ('importlib',
   'C:\\Users\\vitor\\AppData\\Local\\Programs\\Python\\Python36\\lib\\importlib\\__init__.py',
   'PYMODULE'),
  ('pkgutil',
   'C:\\Users\\vitor\\AppData\\Local\\Programs\\Python\\Python36\\lib\\pkgutil.py',
   'PYMODULE'),
  ('xml',
   'C:\\Users\\vitor\\AppData\\Local\\Programs\\Python\\Python36\\lib\\xml\\__init__.py',
   'PYMODULE'),
  ('xml.sax.expatreader',
   'C:\\Users\\vitor\\AppData\\Local\\Programs\\Python\\Python36\\lib\\xml\\sax\\expatreader.py',
   'PYMODULE'),
  ('xml.sax.saxutils',
   'C:\\Users\\vitor\\AppData\\Local\\Programs\\Python\\Python36\\lib\\xml\\sax\\saxutils.py',
   'PYMODULE'),
  ('urllib.request',
   'C:\\Users\\vitor\\AppData\\Local\\Programs\\Python\\Python36\\lib\\urllib\\request.py',
   'PYMODULE'),
  ('getpass',
   'C:\\Users\\vitor\\AppData\\Local\\Programs\\Python\\Python36\\lib\\getpass.py',
   'PYMODULE'),
  ('nturl2path',
   'C:\\Users\\vitor\\AppData\\Local\\Programs\\Python\\Python36\\lib\\nturl2path.py',
   'PYMODULE'),
  ('ftplib',
   'C:\\Users\\vitor\\AppData\\Local\\Programs\\Python\\Python36\\lib\\ftplib.py',
   'PYMODULE'),
  ('netrc',
   'C:\\Users\\vitor\\AppData\\Local\\Programs\\Python\\Python36\\lib\\netrc.py',
   'PYMODULE'),
  ('http.cookiejar',
   'C:\\Users\\vitor\\AppData\\Local\\Programs\\Python\\Python36\\lib\\http\\cookiejar.py',
   'PYMODULE'),
  ('urllib.response',
   'C:\\Users\\vitor\\AppData\\Local\\Programs\\Python\\Python36\\lib\\urllib\\response.py',
   'PYMODULE'),
  ('urllib.error',
   'C:\\Users\\vitor\\AppData\\Local\\Programs\\Python\\Python36\\lib\\urllib\\error.py',
   'PYMODULE'),
  ('xml.sax',
   'C:\\Users\\vitor\\AppData\\Local\\Programs\\Python\\Python36\\lib\\xml\\sax\\__init__.py',
   'PYMODULE'),
  ('xml.sax.handler',
   'C:\\Users\\vitor\\AppData\\Local\\Programs\\Python\\Python36\\lib\\xml\\sax\\handler.py',
   'PYMODULE'),
  ('xml.sax._exceptions',
   'C:\\Users\\vitor\\AppData\\Local\\Programs\\Python\\Python36\\lib\\xml\\sax\\_exceptions.py',
   'PYMODULE'),
  ('xml.sax.xmlreader',
   'C:\\Users\\vitor\\AppData\\Local\\Programs\\Python\\Python36\\lib\\xml\\sax\\xmlreader.py',
   'PYMODULE'),
  ('xml.parsers',
   'C:\\Users\\vitor\\AppData\\Local\\Programs\\Python\\Python36\\lib\\xml\\parsers\\__init__.py',
   'PYMODULE'),
  ('xml.parsers.expat',
   'C:\\Users\\vitor\\AppData\\Local\\Programs\\Python\\Python36\\lib\\xml\\parsers\\expat.py',
   'PYMODULE'),
  ('plistlib',
   'C:\\Users\\vitor\\AppData\\Local\\Programs\\Python\\Python36\\lib\\plistlib.py',
   'PYMODULE'),
  ('platform',
   'C:\\Users\\vitor\\AppData\\Local\\Programs\\Python\\Python36\\lib\\platform.py',
   'PYMODULE'),
  ('token',
   'C:\\Users\\vitor\\AppData\\Local\\Programs\\Python\\Python36\\lib\\token.py',
   'PYMODULE'),
  ('tokenize',
   'C:\\Users\\vitor\\AppData\\Local\\Programs\\Python\\Python36\\lib\\tokenize.py',
   'PYMODULE'),
  ('urllib.parse',
   'C:\\Users\\vitor\\AppData\\Local\\Programs\\Python\\Python36\\lib\\urllib\\parse.py',
   'PYMODULE'),
  ('tempfile',
   'C:\\Users\\vitor\\AppData\\Local\\Programs\\Python\\Python36\\lib\\tempfile.py',
   'PYMODULE'),
  ('tty',
   'C:\\Users\\vitor\\AppData\\Local\\Programs\\Python\\Python36\\lib\\tty.py',
   'PYMODULE'),
  ('pydoc_data',
   'C:\\Users\\vitor\\AppData\\Local\\Programs\\Python\\Python36\\lib\\pydoc_data\\__init__.py',
   'PYMODULE'),
  ('pydoc_data.topics',
   'C:\\Users\\vitor\\AppData\\Local\\Programs\\Python\\Python36\\lib\\pydoc_data\\topics.py',
   'PYMODULE'),
  ('html.entities',
   'C:\\Users\\vitor\\AppData\\Local\\Programs\\Python\\Python36\\lib\\html\\entities.py',
   'PYMODULE'),
  ('html',
   'C:\\Users\\vitor\\AppData\\Local\\Programs\\Python\\Python36\\lib\\html\\__init__.py',
   'PYMODULE'),
  ('ipaddress',
   'C:\\Users\\vitor\\AppData\\Local\\Programs\\Python\\Python36\\lib\\ipaddress.py',
   'PYMODULE'),
  ('ssl',
   'C:\\Users\\vitor\\AppData\\Local\\Programs\\Python\\Python36\\lib\\ssl.py',
   'PYMODULE'),
  ('http.client',
   'C:\\Users\\vitor\\AppData\\Local\\Programs\\Python\\Python36\\lib\\http\\client.py',
   'PYMODULE'),
  ('mimetypes',
   'C:\\Users\\vitor\\AppData\\Local\\Programs\\Python\\Python36\\lib\\mimetypes.py',
   'PYMODULE'),
  ('socketserver',
   'C:\\Users\\vitor\\AppData\\Local\\Programs\\Python\\Python36\\lib\\socketserver.py',
   'PYMODULE'),
  ('http',
   'C:\\Users\\vitor\\AppData\\Local\\Programs\\Python\\Python36\\lib\\http\\__init__.py',
   'PYMODULE'),
  ('http.server',
   'C:\\Users\\vitor\\AppData\\Local\\Programs\\Python\\Python36\\lib\\http\\server.py',
   'PYMODULE'),
  ('optparse',
   'C:\\Users\\vitor\\AppData\\Local\\Programs\\Python\\Python36\\lib\\optparse.py',
   'PYMODULE'),
  ('uu',
   'C:\\Users\\vitor\\AppData\\Local\\Programs\\Python\\Python36\\lib\\uu.py',
   'PYMODULE'),
  ('quopri',
   'C:\\Users\\vitor\\AppData\\Local\\Programs\\Python\\Python36\\lib\\quopri.py',
   'PYMODULE'),
  ('email.feedparser',
   'C:\\Users\\vitor\\AppData\\Local\\Programs\\Python\\Python36\\lib\\email\\feedparser.py',
   'PYMODULE'),
  ('email.parser',
   'C:\\Users\\vitor\\AppData\\Local\\Programs\\Python\\Python36\\lib\\email\\parser.py',
   'PYMODULE'),
  ('email',
   'C:\\Users\\vitor\\AppData\\Local\\Programs\\Python\\Python36\\lib\\email\\__init__.py',
   'PYMODULE'),
  ('calendar',
   'C:\\Users\\vitor\\AppData\\Local\\Programs\\Python\\Python36\\lib\\calendar.py',
   'PYMODULE'),
  ('email._parseaddr',
   'C:\\Users\\vitor\\AppData\\Local\\Programs\\Python\\Python36\\lib\\email\\_parseaddr.py',
   'PYMODULE'),
  ('email.utils',
   'C:\\Users\\vitor\\AppData\\Local\\Programs\\Python\\Python36\\lib\\email\\utils.py',
   'PYMODULE'),
  ('email.errors',
   'C:\\Users\\vitor\\AppData\\Local\\Programs\\Python\\Python36\\lib\\email\\errors.py',
   'PYMODULE'),
  ('email.header',
   'C:\\Users\\vitor\\AppData\\Local\\Programs\\Python\\Python36\\lib\\email\\header.py',
   'PYMODULE'),
  ('email._policybase',
   'C:\\Users\\vitor\\AppData\\Local\\Programs\\Python\\Python36\\lib\\email\\_policybase.py',
   'PYMODULE'),
  ('email.base64mime',
   'C:\\Users\\vitor\\AppData\\Local\\Programs\\Python\\Python36\\lib\\email\\base64mime.py',
   'PYMODULE'),
  ('email.encoders',
   'C:\\Users\\vitor\\AppData\\Local\\Programs\\Python\\Python36\\lib\\email\\encoders.py',
   'PYMODULE'),
  ('email.charset',
   'C:\\Users\\vitor\\AppData\\Local\\Programs\\Python\\Python36\\lib\\email\\charset.py',
   'PYMODULE'),
  ('base64',
   'C:\\Users\\vitor\\AppData\\Local\\Programs\\Python\\Python36\\lib\\base64.py',
   'PYMODULE'),
  ('email._encoded_words',
   'C:\\Users\\vitor\\AppData\\Local\\Programs\\Python\\Python36\\lib\\email\\_encoded_words.py',
   'PYMODULE'),
  ('hashlib',
   'C:\\Users\\vitor\\AppData\\Local\\Programs\\Python\\Python36\\lib\\hashlib.py',
   'PYMODULE'),
  ('bisect',
   'C:\\Users\\vitor\\AppData\\Local\\Programs\\Python\\Python36\\lib\\bisect.py',
   'PYMODULE'),
  ('random',
   'C:\\Users\\vitor\\AppData\\Local\\Programs\\Python\\Python36\\lib\\random.py',
   'PYMODULE'),
  ('email.generator',
   'C:\\Users\\vitor\\AppData\\Local\\Programs\\Python\\Python36\\lib\\email\\generator.py',
   'PYMODULE'),
  ('email.iterators',
   'C:\\Users\\vitor\\AppData\\Local\\Programs\\Python\\Python36\\lib\\email\\iterators.py',
   'PYMODULE'),
  ('urllib',
   'C:\\Users\\vitor\\AppData\\Local\\Programs\\Python\\Python36\\lib\\urllib\\__init__.py',
   'PYMODULE'),
  ('email._header_value_parser',
   'C:\\Users\\vitor\\AppData\\Local\\Programs\\Python\\Python36\\lib\\email\\_header_value_parser.py',
   'PYMODULE'),
  ('email.headerregistry',
   'C:\\Users\\vitor\\AppData\\Local\\Programs\\Python\\Python36\\lib\\email\\headerregistry.py',
   'PYMODULE'),
  ('email.quoprimime',
   'C:\\Users\\vitor\\AppData\\Local\\Programs\\Python\\Python36\\lib\\email\\quoprimime.py',
   'PYMODULE'),
  ('email.contentmanager',
   'C:\\Users\\vitor\\AppData\\Local\\Programs\\Python\\Python36\\lib\\email\\contentmanager.py',
   'PYMODULE'),
  ('email.policy',
   'C:\\Users\\vitor\\AppData\\Local\\Programs\\Python\\Python36\\lib\\email\\policy.py',
   'PYMODULE'),
  ('email.message',
   'C:\\Users\\vitor\\AppData\\Local\\Programs\\Python\\Python36\\lib\\email\\message.py',
   'PYMODULE'),
  ('bz2',
   'C:\\Users\\vitor\\AppData\\Local\\Programs\\Python\\Python36\\lib\\bz2.py',
   'PYMODULE'),
  ('lzma',
   'C:\\Users\\vitor\\AppData\\Local\\Programs\\Python\\Python36\\lib\\lzma.py',
   'PYMODULE'),
  ('_compression',
   'C:\\Users\\vitor\\AppData\\Local\\Programs\\Python\\Python36\\lib\\_compression.py',
   'PYMODULE'),
  ('gzip',
   'C:\\Users\\vitor\\AppData\\Local\\Programs\\Python\\Python36\\lib\\gzip.py',
   'PYMODULE'),
  ('tarfile',
   'C:\\Users\\vitor\\AppData\\Local\\Programs\\Python\\Python36\\lib\\tarfile.py',
   'PYMODULE'),
  ('py_compile',
   'C:\\Users\\vitor\\AppData\\Local\\Programs\\Python\\Python36\\lib\\py_compile.py',
   'PYMODULE'),
  ('zipfile',
   'C:\\Users\\vitor\\AppData\\Local\\Programs\\Python\\Python36\\lib\\zipfile.py',
   'PYMODULE'),
  ('shutil',
   'C:\\Users\\vitor\\AppData\\Local\\Programs\\Python\\Python36\\lib\\shutil.py',
   'PYMODULE'),
  ('socket',
   'C:\\Users\\vitor\\AppData\\Local\\Programs\\Python\\Python36\\lib\\socket.py',
   'PYMODULE'),
  ('webbrowser',
   'C:\\Users\\vitor\\AppData\\Local\\Programs\\Python\\Python36\\lib\\webbrowser.py',
   'PYMODULE'),
  ('pydoc',
   'C:\\Users\\vitor\\AppData\\Local\\Programs\\Python\\Python36\\lib\\pydoc.py',
   'PYMODULE'),
  ('getopt',
   'C:\\Users\\vitor\\AppData\\Local\\Programs\\Python\\Python36\\lib\\getopt.py',
   'PYMODULE'),
  ('pdb',
   'C:\\Users\\vitor\\AppData\\Local\\Programs\\Python\\Python36\\lib\\pdb.py',
   'PYMODULE'),
  ('unittest.util',
   'C:\\Users\\vitor\\AppData\\Local\\Programs\\Python\\Python36\\lib\\unittest\\util.py',
   'PYMODULE'),
  ('unittest.result',
   'C:\\Users\\vitor\\AppData\\Local\\Programs\\Python\\Python36\\lib\\unittest\\result.py',
   'PYMODULE'),
  ('string',
   'C:\\Users\\vitor\\AppData\\Local\\Programs\\Python\\Python36\\lib\\string.py',
   'PYMODULE'),
  ('logging',
   'C:\\Users\\vitor\\AppData\\Local\\Programs\\Python\\Python36\\lib\\logging\\__init__.py',
   'PYMODULE'),
  ('unittest.case',
   'C:\\Users\\vitor\\AppData\\Local\\Programs\\Python\\Python36\\lib\\unittest\\case.py',
   'PYMODULE'),
  ('unittest.suite',
   'C:\\Users\\vitor\\AppData\\Local\\Programs\\Python\\Python36\\lib\\unittest\\suite.py',
   'PYMODULE'),
  ('unittest.loader',
   'C:\\Users\\vitor\\AppData\\Local\\Programs\\Python\\Python36\\lib\\unittest\\loader.py',
   'PYMODULE'),
  ('unittest.runner',
   'C:\\Users\\vitor\\AppData\\Local\\Programs\\Python\\Python36\\lib\\unittest\\runner.py',
   'PYMODULE'),
  ('unittest.main',
   'C:\\Users\\vitor\\AppData\\Local\\Programs\\Python\\Python36\\lib\\unittest\\main.py',
   'PYMODULE'),
  ('unittest.signals',
   'C:\\Users\\vitor\\AppData\\Local\\Programs\\Python\\Python36\\lib\\unittest\\signals.py',
   'PYMODULE'),
  ('unittest',
   'C:\\Users\\vitor\\AppData\\Local\\Programs\\Python\\Python36\\lib\\unittest\\__init__.py',
   'PYMODULE'),
  ('doctest',
   'C:\\Users\\vitor\\AppData\\Local\\Programs\\Python\\Python36\\lib\\doctest.py',
   'PYMODULE'),
  ('stat',
   'C:\\Users\\vitor\\AppData\\Local\\Programs\\Python\\Python36\\lib\\stat.py',
   'PYMODULE'),
  ('genericpath',
   'C:\\Users\\vitor\\AppData\\Local\\Programs\\Python\\Python36\\lib\\genericpath.py',
   'PYMODULE'),
  ('posixpath',
   'C:\\Users\\vitor\\AppData\\Local\\Programs\\Python\\Python36\\lib\\posixpath.py',
   'PYMODULE'),
  ('signal',
   'C:\\Users\\vitor\\AppData\\Local\\Programs\\Python\\Python36\\lib\\signal.py',
   'PYMODULE'),
  ('contextlib',
   'C:\\Users\\vitor\\AppData\\Local\\Programs\\Python\\Python36\\lib\\contextlib.py',
   'PYMODULE'),
  ('_threading_local',
   'C:\\Users\\vitor\\AppData\\Local\\Programs\\Python\\Python36\\lib\\_threading_local.py',
   'PYMODULE'),
  ('threading',
   'C:\\Users\\vitor\\AppData\\Local\\Programs\\Python\\Python36\\lib\\threading.py',
   'PYMODULE'),
  ('selectors',
   'C:\\Users\\vitor\\AppData\\Local\\Programs\\Python\\Python36\\lib\\selectors.py',
   'PYMODULE'),
  ('_dummy_thread',
   'C:\\Users\\vitor\\AppData\\Local\\Programs\\Python\\Python36\\lib\\_dummy_thread.py',
   'PYMODULE'),
  ('dummy_threading',
   'C:\\Users\\vitor\\AppData\\Local\\Programs\\Python\\Python36\\lib\\dummy_threading.py',
   'PYMODULE'),
  ('subprocess',
   'C:\\Users\\vitor\\AppData\\Local\\Programs\\Python\\Python36\\lib\\subprocess.py',
   'PYMODULE'),
  ('os',
   'C:\\Users\\vitor\\AppData\\Local\\Programs\\Python\\Python36\\lib\\os.py',
   'PYMODULE'),
  ('textwrap',
   'C:\\Users\\vitor\\AppData\\Local\\Programs\\Python\\Python36\\lib\\textwrap.py',
   'PYMODULE'),
  ('gettext',
   'C:\\Users\\vitor\\AppData\\Local\\Programs\\Python\\Python36\\lib\\gettext.py',
   'PYMODULE'),
  ('argparse',
   'C:\\Users\\vitor\\AppData\\Local\\Programs\\Python\\Python36\\lib\\argparse.py',
   'PYMODULE'),
  ('pprint',
   'C:\\Users\\vitor\\AppData\\Local\\Programs\\Python\\Python36\\lib\\pprint.py',
   'PYMODULE'),
  ('pickle',
   'C:\\Users\\vitor\\AppData\\Local\\Programs\\Python\\Python36\\lib\\pickle.py',
   'PYMODULE'),
  ('tracemalloc',
   'C:\\Users\\vitor\\AppData\\Local\\Programs\\Python\\Python36\\lib\\tracemalloc.py',
   'PYMODULE'),
  ('copy',
   'C:\\Users\\vitor\\AppData\\Local\\Programs\\Python\\Python36\\lib\\copy.py',
   'PYMODULE'),
  ('GUI',
   'C:\\Users\\vitor\\Documents\\Code projects\\Locus\\GUI.py',
   'PYMODULE'),
  ('matplotlib.backends.backend_tkagg',
   'c:\\users\\vitor\\documents\\code '
   'projects\\locus\\pyenv\\lib\\site-packages\\matplotlib\\backends\\backend_tkagg.py',
   'PYMODULE'),
  ('matplotlib.backends.backend_agg',
   'c:\\users\\vitor\\documents\\code '
   'projects\\locus\\pyenv\\lib\\site-packages\\matplotlib\\backends\\backend_agg.py',
   'PYMODULE'),
  ('matplotlib.colors',
   'c:\\users\\vitor\\documents\\code '
   'projects\\locus\\pyenv\\lib\\site-packages\\matplotlib\\colors.py',
   'PYMODULE'),
  ('matplotlib._color_data',
   'c:\\users\\vitor\\documents\\code '
   'projects\\locus\\pyenv\\lib\\site-packages\\matplotlib\\_color_data.py',
   'PYMODULE'),
  ('matplotlib.transforms',
   'c:\\users\\vitor\\documents\\code '
   'projects\\locus\\pyenv\\lib\\site-packages\\matplotlib\\transforms.py',
   'PYMODULE'),
  ('numpy.linalg',
   'c:\\users\\vitor\\documents\\code '
   'projects\\locus\\pyenv\\lib\\site-packages\\numpy\\linalg\\__init__.py',
   'PYMODULE'),
  ('numpy.testing._private.pytesttester',
   'c:\\users\\vitor\\documents\\code '
   'projects\\locus\\pyenv\\lib\\site-packages\\numpy\\testing\\_private\\pytesttester.py',
   'PYMODULE'),
  ('numpy.testing._private',
   'c:\\users\\vitor\\documents\\code '
   'projects\\locus\\pyenv\\lib\\site-packages\\numpy\\testing\\_private\\__init__.py',
   'PYMODULE'),
  ('numpy.testing._private.decorators',
   'c:\\users\\vitor\\documents\\code '
   'projects\\locus\\pyenv\\lib\\site-packages\\numpy\\testing\\_private\\decorators.py',
   'PYMODULE'),
  ('numpy.testing._private.parameterized',
   'c:\\users\\vitor\\documents\\code '
   'projects\\locus\\pyenv\\lib\\site-packages\\numpy\\testing\\_private\\parameterized.py',
   'PYMODULE'),
  ('numpy.testing._private.noseclasses',
   'c:\\users\\vitor\\documents\\code '
   'projects\\locus\\pyenv\\lib\\site-packages\\numpy\\testing\\_private\\noseclasses.py',
   'PYMODULE'),
  ('numpy.core',
   'c:\\users\\vitor\\documents\\code '
   'projects\\locus\\pyenv\\lib\\site-packages\\numpy\\core\\__init__.py',
   'PYMODULE'),
  ('numpy.core.einsumfunc',
   'c:\\users\\vitor\\documents\\code '
   'projects\\locus\\pyenv\\lib\\site-packages\\numpy\\core\\einsumfunc.py',
   'PYMODULE'),
  ('numpy.compat',
   'c:\\users\\vitor\\documents\\code '
   'projects\\locus\\pyenv\\lib\\site-packages\\numpy\\compat\\__init__.py',
   'PYMODULE'),
  ('numpy.compat.py3k',
   'c:\\users\\vitor\\documents\\code '
   'projects\\locus\\pyenv\\lib\\site-packages\\numpy\\compat\\py3k.py',
   'PYMODULE'),
  ('pathlib',
   'C:\\Users\\vitor\\AppData\\Local\\Programs\\Python\\Python36\\lib\\pathlib.py',
   'PYMODULE'),
  ('numpy.compat._inspect',
   'c:\\users\\vitor\\documents\\code '
   'projects\\locus\\pyenv\\lib\\site-packages\\numpy\\compat\\_inspect.py',
   'PYMODULE'),
  ('numpy.core.shape_base',
   'c:\\users\\vitor\\documents\\code '
   'projects\\locus\\pyenv\\lib\\site-packages\\numpy\\core\\shape_base.py',
   'PYMODULE'),
  ('numpy.core.getlimits',
   'c:\\users\\vitor\\documents\\code '
   'projects\\locus\\pyenv\\lib\\site-packages\\numpy\\core\\getlimits.py',
   'PYMODULE'),
  ('numpy.core.machar',
   'c:\\users\\vitor\\documents\\code '
   'projects\\locus\\pyenv\\lib\\site-packages\\numpy\\core\\machar.py',
   'PYMODULE'),
  ('numpy.core.function_base',
   'c:\\users\\vitor\\documents\\code '
   'projects\\locus\\pyenv\\lib\\site-packages\\numpy\\core\\function_base.py',
   'PYMODULE'),
  ('numpy.core.memmap',
   'c:\\users\\vitor\\documents\\code '
   'projects\\locus\\pyenv\\lib\\site-packages\\numpy\\core\\memmap.py',
   'PYMODULE'),
  ('numpy.core.records',
   'c:\\users\\vitor\\documents\\code '
   'projects\\locus\\pyenv\\lib\\site-packages\\numpy\\core\\records.py',
   'PYMODULE'),
  ('numpy.core.defchararray',
   'c:\\users\\vitor\\documents\\code '
   'projects\\locus\\pyenv\\lib\\site-packages\\numpy\\core\\defchararray.py',
   'PYMODULE'),
  ('numpy.core.numeric',
   'c:\\users\\vitor\\documents\\code '
   'projects\\locus\\pyenv\\lib\\site-packages\\numpy\\core\\numeric.py',
   'PYMODULE'),
  ('numpy.core.arrayprint',
   'c:\\users\\vitor\\documents\\code '
   'projects\\locus\\pyenv\\lib\\site-packages\\numpy\\core\\arrayprint.py',
   'PYMODULE'),
  ('numpy.core.fromnumeric',
   'c:\\users\\vitor\\documents\\code '
   'projects\\locus\\pyenv\\lib\\site-packages\\numpy\\core\\fromnumeric.py',
   'PYMODULE'),
  ('numpy.core._methods',
   'c:\\users\\vitor\\documents\\code '
   'projects\\locus\\pyenv\\lib\\site-packages\\numpy\\core\\_methods.py',
   'PYMODULE'),
  ('numpy._globals',
   'c:\\users\\vitor\\documents\\code '
   'projects\\locus\\pyenv\\lib\\site-packages\\numpy\\_globals.py',
   'PYMODULE'),
  ('numpy.core.numerictypes',
   'c:\\users\\vitor\\documents\\code '
   'projects\\locus\\pyenv\\lib\\site-packages\\numpy\\core\\numerictypes.py',
   'PYMODULE'),
  ('numpy.core._internal',
   'c:\\users\\vitor\\documents\\code '
   'projects\\locus\\pyenv\\lib\\site-packages\\numpy\\core\\_internal.py',
   'PYMODULE'),
  ('numpy.version',
   'c:\\users\\vitor\\documents\\code '
   'projects\\locus\\pyenv\\lib\\site-packages\\numpy\\version.py',
   'PYMODULE'),
  ('numpy.core.info',
   'c:\\users\\vitor\\documents\\code '
   'projects\\locus\\pyenv\\lib\\site-packages\\numpy\\core\\info.py',
   'PYMODULE'),
  ('numpy.testing._private.nosetester',
   'c:\\users\\vitor\\documents\\code '
   'projects\\locus\\pyenv\\lib\\site-packages\\numpy\\testing\\_private\\nosetester.py',
   'PYMODULE'),
  ('numpy.testing._private.utils',
   'c:\\users\\vitor\\documents\\code '
   'projects\\locus\\pyenv\\lib\\site-packages\\numpy\\testing\\_private\\utils.py',
   'PYMODULE'),
  ('numpy.lib',
   'c:\\users\\vitor\\documents\\code '
   'projects\\locus\\pyenv\\lib\\site-packages\\numpy\\lib\\__init__.py',
   'PYMODULE'),
  ('numpy.lib._version',
   'c:\\users\\vitor\\documents\\code '
   'projects\\locus\\pyenv\\lib\\site-packages\\numpy\\lib\\_version.py',
   'PYMODULE'),
  ('numpy.lib.arraypad',
   'c:\\users\\vitor\\documents\\code '
   'projects\\locus\\pyenv\\lib\\site-packages\\numpy\\lib\\arraypad.py',
   'PYMODULE'),
  ('numpy.lib.arrayterator',
   'c:\\users\\vitor\\documents\\code '
   'projects\\locus\\pyenv\\lib\\site-packages\\numpy\\lib\\arrayterator.py',
   'PYMODULE'),
  ('numpy.lib.financial',
   'c:\\users\\vitor\\documents\\code '
   'projects\\locus\\pyenv\\lib\\site-packages\\numpy\\lib\\financial.py',
   'PYMODULE'),
  ('numpy.lib.npyio',
   'c:\\users\\vitor\\documents\\code '
   'projects\\locus\\pyenv\\lib\\site-packages\\numpy\\lib\\npyio.py',
   'PYMODULE'),
  ('numpy.ma.mrecords',
   'c:\\users\\vitor\\documents\\code '
   'projects\\locus\\pyenv\\lib\\site-packages\\numpy\\ma\\mrecords.py',
   'PYMODULE'),
  ('numpy.ma',
   'c:\\users\\vitor\\documents\\code '
   'projects\\locus\\pyenv\\lib\\site-packages\\numpy\\ma\\__init__.py',
   'PYMODULE'),
  ('numpy.ma.extras',
   'c:\\users\\vitor\\documents\\code '
   'projects\\locus\\pyenv\\lib\\site-packages\\numpy\\ma\\extras.py',
   'PYMODULE'),
  ('numpy.ma.core',
   'c:\\users\\vitor\\documents\\code '
   'projects\\locus\\pyenv\\lib\\site-packages\\numpy\\ma\\core.py',
   'PYMODULE'),
  ('numpy.lib._iotools',
   'c:\\users\\vitor\\documents\\code '
   'projects\\locus\\pyenv\\lib\\site-packages\\numpy\\lib\\_iotools.py',
   'PYMODULE'),
  ('numpy.lib._datasource',
   'c:\\users\\vitor\\documents\\code '
   'projects\\locus\\pyenv\\lib\\site-packages\\numpy\\lib\\_datasource.py',
   'PYMODULE'),
  ('numpy.lib.format',
   'c:\\users\\vitor\\documents\\code '
   'projects\\locus\\pyenv\\lib\\site-packages\\numpy\\lib\\format.py',
   'PYMODULE'),
  ('numpy.lib.arraysetops',
   'c:\\users\\vitor\\documents\\code '
   'projects\\locus\\pyenv\\lib\\site-packages\\numpy\\lib\\arraysetops.py',
   'PYMODULE'),
  ('numpy.lib.polynomial',
   'c:\\users\\vitor\\documents\\code '
   'projects\\locus\\pyenv\\lib\\site-packages\\numpy\\lib\\polynomial.py',
   'PYMODULE'),
  ('numpy.lib.scimath',
   'c:\\users\\vitor\\documents\\code '
   'projects\\locus\\pyenv\\lib\\site-packages\\numpy\\lib\\scimath.py',
   'PYMODULE'),
  ('numpy.lib.histograms',
   'c:\\users\\vitor\\documents\\code '
   'projects\\locus\\pyenv\\lib\\site-packages\\numpy\\lib\\histograms.py',
   'PYMODULE'),
  ('numpy.lib.ufunclike',
   'c:\\users\\vitor\\documents\\code '
   'projects\\locus\\pyenv\\lib\\site-packages\\numpy\\lib\\ufunclike.py',
   'PYMODULE'),
  ('numpy.lib.twodim_base',
   'c:\\users\\vitor\\documents\\code '
   'projects\\locus\\pyenv\\lib\\site-packages\\numpy\\lib\\twodim_base.py',
   'PYMODULE'),
  ('numpy.lib.stride_tricks',
   'c:\\users\\vitor\\documents\\code '
   'projects\\locus\\pyenv\\lib\\site-packages\\numpy\\lib\\stride_tricks.py',
   'PYMODULE'),
  ('numpy.lib.shape_base',
   'c:\\users\\vitor\\documents\\code '
   'projects\\locus\\pyenv\\lib\\site-packages\\numpy\\lib\\shape_base.py',
   'PYMODULE'),
  ('numpy.matrixlib.defmatrix',
   'c:\\users\\vitor\\documents\\code '
   'projects\\locus\\pyenv\\lib\\site-packages\\numpy\\matrixlib\\defmatrix.py',
   'PYMODULE'),
  ('numpy.matrixlib',
   'c:\\users\\vitor\\documents\\code '
   'projects\\locus\\pyenv\\lib\\site-packages\\numpy\\matrixlib\\__init__.py',
   'PYMODULE'),
  ('numpy.dual',
   'c:\\users\\vitor\\documents\\code '
   'projects\\locus\\pyenv\\lib\\site-packages\\numpy\\dual.py',
   'PYMODULE'),
  ('numpy.fft',
   'c:\\users\\vitor\\documents\\code '
   'projects\\locus\\pyenv\\lib\\site-packages\\numpy\\fft\\__init__.py',
   'PYMODULE'),
  ('numpy.fft.helper',
   'c:\\users\\vitor\\documents\\code '
   'projects\\locus\\pyenv\\lib\\site-packages\\numpy\\fft\\helper.py',
   'PYMODULE'),
  ('numpy.fft.fftpack',
   'c:\\users\\vitor\\documents\\code '
   'projects\\locus\\pyenv\\lib\\site-packages\\numpy\\fft\\fftpack.py',
   'PYMODULE'),
  ('numpy.fft.info',
   'c:\\users\\vitor\\documents\\code '
   'projects\\locus\\pyenv\\lib\\site-packages\\numpy\\fft\\info.py',
   'PYMODULE'),
  ('numpy.lib.nanfunctions',
   'c:\\users\\vitor\\documents\\code '
   'projects\\locus\\pyenv\\lib\\site-packages\\numpy\\lib\\nanfunctions.py',
   'PYMODULE'),
  ('numpy.lib.mixins',
   'c:\\users\\vitor\\documents\\code '
   'projects\\locus\\pyenv\\lib\\site-packages\\numpy\\lib\\mixins.py',
   'PYMODULE'),
  ('numpy.lib.index_tricks',
   'c:\\users\\vitor\\documents\\code '
   'projects\\locus\\pyenv\\lib\\site-packages\\numpy\\lib\\index_tricks.py',
   'PYMODULE'),
  ('numpy.lib.function_base',
   'c:\\users\\vitor\\documents\\code '
   'projects\\locus\\pyenv\\lib\\site-packages\\numpy\\lib\\function_base.py',
   'PYMODULE'),
  ('numpy.lib.type_check',
   'c:\\users\\vitor\\documents\\code '
   'projects\\locus\\pyenv\\lib\\site-packages\\numpy\\lib\\type_check.py',
   'PYMODULE'),
  ('numpy.lib.info',
   'c:\\users\\vitor\\documents\\code '
   'projects\\locus\\pyenv\\lib\\site-packages\\numpy\\lib\\info.py',
   'PYMODULE'),
  ('numpy.lib.utils',
   'c:\\users\\vitor\\documents\\code '
   'projects\\locus\\pyenv\\lib\\site-packages\\numpy\\lib\\utils.py',
   'PYMODULE'),
  ('numpy.testing',
   'c:\\users\\vitor\\documents\\code '
   'projects\\locus\\pyenv\\lib\\site-packages\\numpy\\testing\\__init__.py',
   'PYMODULE'),
  ('numpy.distutils.cpuinfo',
   'c:\\users\\vitor\\documents\\code '
   'projects\\locus\\pyenv\\lib\\site-packages\\numpy\\distutils\\cpuinfo.py',
   'PYMODULE'),
  ('numpy.distutils.compat',
   'c:\\users\\vitor\\documents\\code '
   'projects\\locus\\pyenv\\lib\\site-packages\\numpy\\distutils\\compat.py',
   'PYMODULE'),
  ('numpy.distutils',
   'c:\\users\\vitor\\documents\\code '
   'projects\\locus\\pyenv\\lib\\site-packages\\numpy\\distutils\\__init__.py',
   'PYMODULE'),
  ('numpy.distutils.fcompiler',
   'c:\\users\\vitor\\documents\\code '
   'projects\\locus\\pyenv\\lib\\site-packages\\numpy\\distutils\\fcompiler\\__init__.py',
   'PYMODULE'),
  ('numpy.distutils.command.config_compiler',
   'c:\\users\\vitor\\documents\\code '
   'projects\\locus\\pyenv\\lib\\site-packages\\numpy\\distutils\\command\\config_compiler.py',
   'PYMODULE'),
  ('numpy.distutils.command',
   'c:\\users\\vitor\\documents\\code '
   'projects\\locus\\pyenv\\lib\\site-packages\\numpy\\distutils\\command\\__init__.py',
   'PYMODULE'),
  ('numpy.distutils.command.egg_info',
   'c:\\users\\vitor\\documents\\code '
   'projects\\locus\\pyenv\\lib\\site-packages\\numpy\\distutils\\command\\egg_info.py',
   'PYMODULE'),
  ('setuptools.command.egg_info',
   'c:\\users\\vitor\\documents\\code '
   'projects\\locus\\pyenv\\lib\\site-packages\\setuptools\\command\\egg_info.py',
   'PYMODULE'),
  ('setuptools.glob',
   'c:\\users\\vitor\\documents\\code '
   'projects\\locus\\pyenv\\lib\\site-packages\\setuptools\\glob.py',
   'PYMODULE'),
  ('setuptools.unicode_utils',
   'c:\\users\\vitor\\documents\\code '
   'projects\\locus\\pyenv\\lib\\site-packages\\setuptools\\unicode_utils.py',
   'PYMODULE'),
  ('setuptools.command.bdist_egg',
   'c:\\users\\vitor\\documents\\code '
   'projects\\locus\\pyenv\\lib\\site-packages\\setuptools\\command\\bdist_egg.py',
   'PYMODULE'),
  ('setuptools.extension',
   'c:\\users\\vitor\\documents\\code '
   'projects\\locus\\pyenv\\lib\\site-packages\\setuptools\\extension.py',
   'PYMODULE'),
  ('setuptools.monkey',
   'c:\\users\\vitor\\documents\\code '
   'projects\\locus\\pyenv\\lib\\site-packages\\setuptools\\monkey.py',
   'PYMODULE'),
  ('distutils.extension',
   'C:\\Users\\vitor\\AppData\\Local\\Programs\\Python\\Python36\\lib\\distutils\\extension.py',
   'PYMODULE'),
  ('setuptools.command',
   'c:\\users\\vitor\\documents\\code '
   'projects\\locus\\pyenv\\lib\\site-packages\\setuptools\\command\\__init__.py',
   'PYMODULE'),
  ('setuptools.command.install_scripts',
   'c:\\users\\vitor\\documents\\code '
   'projects\\locus\\pyenv\\lib\\site-packages\\setuptools\\command\\install_scripts.py',
   'PYMODULE'),
  ('setuptools.command.easy_install',
   'c:\\users\\vitor\\documents\\code '
   'projects\\locus\\pyenv\\lib\\site-packages\\setuptools\\command\\easy_install.py',
   'PYMODULE'),
  ('setuptools.dist',
   'c:\\users\\vitor\\documents\\code '
   'projects\\locus\\pyenv\\lib\\site-packages\\setuptools\\dist.py',
   'PYMODULE'),
  ('setuptools.py36compat',
   'c:\\users\\vitor\\documents\\code '
   'projects\\locus\\pyenv\\lib\\site-packages\\setuptools\\py36compat.py',
   'PYMODULE'),
  ('configparser',
   'C:\\Users\\vitor\\AppData\\Local\\Programs\\Python\\Python36\\lib\\configparser.py',
   'PYMODULE'),
  ('setuptools.config',
   'c:\\users\\vitor\\documents\\code '
   'projects\\locus\\pyenv\\lib\\site-packages\\setuptools\\config.py',
   'PYMODULE'),
  ('setuptools.windows_support',
   'c:\\users\\vitor\\documents\\code '
   'projects\\locus\\pyenv\\lib\\site-packages\\setuptools\\windows_support.py',
   'PYMODULE'),
  ('setuptools.depends',
   'c:\\users\\vitor\\documents\\code '
   'projects\\locus\\pyenv\\lib\\site-packages\\setuptools\\depends.py',
   'PYMODULE'),
  ('setuptools.py33compat',
   'c:\\users\\vitor\\documents\\code '
   'projects\\locus\\pyenv\\lib\\site-packages\\setuptools\\py33compat.py',
   'PYMODULE'),
  ('html.parser',
   'C:\\Users\\vitor\\AppData\\Local\\Programs\\Python\\Python36\\lib\\html\\parser.py',
   'PYMODULE'),
  ('_markupbase',
   'C:\\Users\\vitor\\AppData\\Local\\Programs\\Python\\Python36\\lib\\_markupbase.py',
   'PYMODULE'),
  ('distutils.version',
   'C:\\Users\\vitor\\AppData\\Local\\Programs\\Python\\Python36\\lib\\distutils\\version.py',
   'PYMODULE'),
  ('distutils.cmd',
   'C:\\Users\\vitor\\AppData\\Local\\Programs\\Python\\Python36\\lib\\distutils\\cmd.py',
   'PYMODULE'),
  ('setuptools.wheel',
   'c:\\users\\vitor\\documents\\code '
   'projects\\locus\\pyenv\\lib\\site-packages\\setuptools\\wheel.py',
   'PYMODULE'),
  ('setuptools.pep425tags',
   'c:\\users\\vitor\\documents\\code '
   'projects\\locus\\pyenv\\lib\\site-packages\\setuptools\\pep425tags.py',
   'PYMODULE'),
  ('setuptools.glibc',
   'c:\\users\\vitor\\documents\\code '
   'projects\\locus\\pyenv\\lib\\site-packages\\setuptools\\glibc.py',
   'PYMODULE'),
  ('setuptools.package_index',
   'c:\\users\\vitor\\documents\\code '
   'projects\\locus\\pyenv\\lib\\site-packages\\setuptools\\package_index.py',
   'PYMODULE'),
  ('setuptools.ssl_support',
   'c:\\users\\vitor\\documents\\code '
   'projects\\locus\\pyenv\\lib\\site-packages\\setuptools\\ssl_support.py',
   'PYMODULE'),
  ('setuptools.archive_util',
   'c:\\users\\vitor\\documents\\code '
   'projects\\locus\\pyenv\\lib\\site-packages\\setuptools\\archive_util.py',
   'PYMODULE'),
  ('setuptools.py27compat',
   'c:\\users\\vitor\\documents\\code '
   'projects\\locus\\pyenv\\lib\\site-packages\\setuptools\\py27compat.py',
   'PYMODULE'),
  ('setuptools.py31compat',
   'c:\\users\\vitor\\documents\\code '
   'projects\\locus\\pyenv\\lib\\site-packages\\setuptools\\py31compat.py',
   'PYMODULE'),
  ('setuptools.sandbox',
   'c:\\users\\vitor\\documents\\code '
   'projects\\locus\\pyenv\\lib\\site-packages\\setuptools\\sandbox.py',
   'PYMODULE'),
  ('site',
   'c:\\users\\vitor\\documents\\code '
   'projects\\locus\\pyenv\\lib\\site-packages\\PyInstaller\\fake-modules\\site.py',
   'PYMODULE'),
  ('distutils.command.build_scripts',
   'C:\\Users\\vitor\\AppData\\Local\\Programs\\Python\\Python36\\lib\\distutils\\command\\build_scripts.py',
   'PYMODULE'),
  ('distutils.command',
   'C:\\Users\\vitor\\AppData\\Local\\Programs\\Python\\Python36\\lib\\distutils\\command\\__init__.py',
   'PYMODULE'),
  ('distutils.command.install',
   'C:\\Users\\vitor\\AppData\\Local\\Programs\\Python\\Python36\\lib\\distutils\\command\\install.py',
   'PYMODULE'),
  ('distutils.command.install_scripts',
   'C:\\Users\\vitor\\AppData\\Local\\Programs\\Python\\Python36\\lib\\distutils\\command\\install_scripts.py',
   'PYMODULE'),
  ('distutils.command.bdist',
   'C:\\Users\\vitor\\AppData\\Local\\Programs\\Python\\Python36\\lib\\distutils\\command\\bdist.py',
   'PYMODULE'),
  ('setuptools.command.setopt',
   'c:\\users\\vitor\\documents\\code '
   'projects\\locus\\pyenv\\lib\\site-packages\\setuptools\\command\\setopt.py',
   'PYMODULE'),
  ('setuptools.command.sdist',
   'c:\\users\\vitor\\documents\\code '
   'projects\\locus\\pyenv\\lib\\site-packages\\setuptools\\command\\sdist.py',
   'PYMODULE'),
  ('setuptools.command.py36compat',
   'c:\\users\\vitor\\documents\\code '
   'projects\\locus\\pyenv\\lib\\site-packages\\setuptools\\command\\py36compat.py',
   'PYMODULE'),
  ('distutils.command.sdist',
   'C:\\Users\\vitor\\AppData\\Local\\Programs\\Python\\Python36\\lib\\distutils\\command\\sdist.py',
   'PYMODULE'),
  ('setuptools',
   'c:\\users\\vitor\\documents\\code '
   'projects\\locus\\pyenv\\lib\\site-packages\\setuptools\\__init__.py',
   'PYMODULE'),
  ('setuptools._vendor',
   'c:\\users\\vitor\\documents\\code '
   'projects\\locus\\pyenv\\lib\\site-packages\\setuptools\\_vendor\\__init__.py',
   'PYMODULE'),
  ('setuptools._vendor.packaging.__about__',
   'c:\\users\\vitor\\documents\\code '
   'projects\\locus\\pyenv\\lib\\site-packages\\setuptools\\_vendor\\packaging\\__about__.py',
   'PYMODULE'),
  ('setuptools._vendor.packaging.version',
   'c:\\users\\vitor\\documents\\code '
   'projects\\locus\\pyenv\\lib\\site-packages\\setuptools\\_vendor\\packaging\\version.py',
   'PYMODULE'),
  ('setuptools._vendor.pyparsing',
   'c:\\users\\vitor\\documents\\code '
   'projects\\locus\\pyenv\\lib\\site-packages\\setuptools\\_vendor\\pyparsing.py',
   'PYMODULE'),
  ('setuptools._vendor.packaging.utils',
   'c:\\users\\vitor\\documents\\code '
   'projects\\locus\\pyenv\\lib\\site-packages\\setuptools\\_vendor\\packaging\\utils.py',
   'PYMODULE'),
  ('setuptools._vendor.packaging._structures',
   'c:\\users\\vitor\\documents\\code '
   'projects\\locus\\pyenv\\lib\\site-packages\\setuptools\\_vendor\\packaging\\_structures.py',
   'PYMODULE'),
  ('setuptools._vendor.packaging.specifiers',
   'c:\\users\\vitor\\documents\\code '
   'projects\\locus\\pyenv\\lib\\site-packages\\setuptools\\_vendor\\packaging\\specifiers.py',
   'PYMODULE'),
  ('setuptools._vendor.packaging.requirements',
   'c:\\users\\vitor\\documents\\code '
   'projects\\locus\\pyenv\\lib\\site-packages\\setuptools\\_vendor\\packaging\\requirements.py',
   'PYMODULE'),
  ('setuptools._vendor.packaging._compat',
   'c:\\users\\vitor\\documents\\code '
   'projects\\locus\\pyenv\\lib\\site-packages\\setuptools\\_vendor\\packaging\\_compat.py',
   'PYMODULE'),
  ('setuptools._vendor.packaging.markers',
   'c:\\users\\vitor\\documents\\code '
   'projects\\locus\\pyenv\\lib\\site-packages\\setuptools\\_vendor\\packaging\\markers.py',
   'PYMODULE'),
  ('setuptools._vendor.packaging',
   'c:\\users\\vitor\\documents\\code '
   'projects\\locus\\pyenv\\lib\\site-packages\\setuptools\\_vendor\\packaging\\__init__.py',
   'PYMODULE'),
  ('setuptools._vendor.six',
   'c:\\users\\vitor\\documents\\code '
   'projects\\locus\\pyenv\\lib\\site-packages\\setuptools\\_vendor\\six.py',
   'PYMODULE'),
  ('setuptools.msvc',
   'c:\\users\\vitor\\documents\\code '
   'projects\\locus\\pyenv\\lib\\site-packages\\setuptools\\msvc.py',
   'PYMODULE'),
  ('distutils.msvc9compiler',
   'C:\\Users\\vitor\\AppData\\Local\\Programs\\Python\\Python36\\lib\\distutils\\msvc9compiler.py',
   'PYMODULE'),
  ('distutils.command.build_ext',
   'C:\\Users\\vitor\\AppData\\Local\\Programs\\Python\\Python36\\lib\\distutils\\command\\build_ext.py',
   'PYMODULE'),
  ('distutils._msvccompiler',
   'C:\\Users\\vitor\\AppData\\Local\\Programs\\Python\\Python36\\lib\\distutils\\_msvccompiler.py',
   'PYMODULE'),
  ('concurrent.futures',
   'C:\\Users\\vitor\\AppData\\Local\\Programs\\Python\\Python36\\lib\\concurrent\\futures\\__init__.py',
   'PYMODULE'),
  ('concurrent.futures.thread',
   'C:\\Users\\vitor\\AppData\\Local\\Programs\\Python\\Python36\\lib\\concurrent\\futures\\thread.py',
   'PYMODULE'),
  ('concurrent.futures.process',
   'C:\\Users\\vitor\\AppData\\Local\\Programs\\Python\\Python36\\lib\\concurrent\\futures\\process.py',
   'PYMODULE'),
  ('concurrent.futures._base',
   'C:\\Users\\vitor\\AppData\\Local\\Programs\\Python\\Python36\\lib\\concurrent\\futures\\_base.py',
   'PYMODULE'),
  ('concurrent',
   'C:\\Users\\vitor\\AppData\\Local\\Programs\\Python\\Python36\\lib\\concurrent\\__init__.py',
   'PYMODULE'),
  ('setuptools.namespaces',
   'c:\\users\\vitor\\documents\\code '
   'projects\\locus\\pyenv\\lib\\site-packages\\setuptools\\namespaces.py',
   'PYMODULE'),
  ('setuptools.version',
   'c:\\users\\vitor\\documents\\code '
   'projects\\locus\\pyenv\\lib\\site-packages\\setuptools\\version.py',
   'PYMODULE'),
  ('setuptools.extern',
   'c:\\users\\vitor\\documents\\code '
   'projects\\locus\\pyenv\\lib\\site-packages\\setuptools\\extern\\__init__.py',
   'PYMODULE'),
  ('numpy.distutils.command.develop',
   'c:\\users\\vitor\\documents\\code '
   'projects\\locus\\pyenv\\lib\\site-packages\\numpy\\distutils\\command\\develop.py',
   'PYMODULE'),
  ('setuptools.command.develop',
   'c:\\users\\vitor\\documents\\code '
   'projects\\locus\\pyenv\\lib\\site-packages\\setuptools\\command\\develop.py',
   'PYMODULE'),
  ('numpy.distutils.command.install_clib',
   'c:\\users\\vitor\\documents\\code '
   'projects\\locus\\pyenv\\lib\\site-packages\\numpy\\distutils\\command\\install_clib.py',
   'PYMODULE'),
  ('numpy.distutils.command.bdist_rpm',
   'c:\\users\\vitor\\documents\\code '
   'projects\\locus\\pyenv\\lib\\site-packages\\numpy\\distutils\\command\\bdist_rpm.py',
   'PYMODULE'),
  ('distutils.command.bdist_rpm',
   'C:\\Users\\vitor\\AppData\\Local\\Programs\\Python\\Python36\\lib\\distutils\\command\\bdist_rpm.py',
   'PYMODULE'),
  ('setuptools.command.bdist_rpm',
   'c:\\users\\vitor\\documents\\code '
   'projects\\locus\\pyenv\\lib\\site-packages\\setuptools\\command\\bdist_rpm.py',
   'PYMODULE'),
  ('numpy.distutils.command.install',
   'c:\\users\\vitor\\documents\\code '
   'projects\\locus\\pyenv\\lib\\site-packages\\numpy\\distutils\\command\\install.py',
   'PYMODULE'),
  ('setuptools.command.install',
   'c:\\users\\vitor\\documents\\code '
   'projects\\locus\\pyenv\\lib\\site-packages\\setuptools\\command\\install.py',
   'PYMODULE'),
  ('numpy.distutils.command.install_headers',
   'c:\\users\\vitor\\documents\\code '
   'projects\\locus\\pyenv\\lib\\site-packages\\numpy\\distutils\\command\\install_headers.py',
   'PYMODULE'),
  ('distutils.command.install_headers',
   'C:\\Users\\vitor\\AppData\\Local\\Programs\\Python\\Python36\\lib\\distutils\\command\\install_headers.py',
   'PYMODULE'),
  ('numpy.distutils.command.install_data',
   'c:\\users\\vitor\\documents\\code '
   'projects\\locus\\pyenv\\lib\\site-packages\\numpy\\distutils\\command\\install_data.py',
   'PYMODULE'),
  ('distutils.command.install_data',
   'C:\\Users\\vitor\\AppData\\Local\\Programs\\Python\\Python36\\lib\\distutils\\command\\install_data.py',
   'PYMODULE'),
  ('numpy.distutils.command.sdist',
   'c:\\users\\vitor\\documents\\code '
   'projects\\locus\\pyenv\\lib\\site-packages\\numpy\\distutils\\command\\sdist.py',
   'PYMODULE'),
  ('numpy.distutils.command.build_scripts',
   'c:\\users\\vitor\\documents\\code '
   'projects\\locus\\pyenv\\lib\\site-packages\\numpy\\distutils\\command\\build_scripts.py',
   'PYMODULE'),
  ('numpy.distutils.command.build_clib',
   'c:\\users\\vitor\\documents\\code '
   'projects\\locus\\pyenv\\lib\\site-packages\\numpy\\distutils\\command\\build_clib.py',
   'PYMODULE'),
  ('distutils.command.build_clib',
   'C:\\Users\\vitor\\AppData\\Local\\Programs\\Python\\Python36\\lib\\distutils\\command\\build_clib.py',
   'PYMODULE'),
  ('numpy.distutils.command.build_ext',
   'c:\\users\\vitor\\documents\\code '
   'projects\\locus\\pyenv\\lib\\site-packages\\numpy\\distutils\\command\\build_ext.py',
   'PYMODULE'),
  ('numpy.distutils.system_info',
   'c:\\users\\vitor\\documents\\code '
   'projects\\locus\\pyenv\\lib\\site-packages\\numpy\\distutils\\system_info.py',
   'PYMODULE'),
  ('numpy.f2py',
   'c:\\users\\vitor\\documents\\code '
   'projects\\locus\\pyenv\\lib\\site-packages\\numpy\\f2py\\__init__.py',
   'PYMODULE'),
  ('numpy.f2py.diagnose',
   'c:\\users\\vitor\\documents\\code '
   'projects\\locus\\pyenv\\lib\\site-packages\\numpy\\f2py\\diagnose.py',
   'PYMODULE'),
  ('numpy.f2py.f2py_testing',
   'c:\\users\\vitor\\documents\\code '
   'projects\\locus\\pyenv\\lib\\site-packages\\numpy\\f2py\\f2py_testing.py',
   'PYMODULE'),
  ('numpy.f2py.f2py2e',
   'c:\\users\\vitor\\documents\\code '
   'projects\\locus\\pyenv\\lib\\site-packages\\numpy\\f2py\\f2py2e.py',
   'PYMODULE'),
  ('numpy.distutils.command.build_src',
   'c:\\users\\vitor\\documents\\code '
   'projects\\locus\\pyenv\\lib\\site-packages\\numpy\\distutils\\command\\build_src.py',
   'PYMODULE'),
  ('numpy.distutils.conv_template',
   'c:\\users\\vitor\\documents\\code '
   'projects\\locus\\pyenv\\lib\\site-packages\\numpy\\distutils\\conv_template.py',
   'PYMODULE'),
  ('numpy.distutils.from_template',
   'c:\\users\\vitor\\documents\\code '
   'projects\\locus\\pyenv\\lib\\site-packages\\numpy\\distutils\\from_template.py',
   'PYMODULE'),
  ('numpy.f2py.auxfuncs',
   'c:\\users\\vitor\\documents\\code '
   'projects\\locus\\pyenv\\lib\\site-packages\\numpy\\f2py\\auxfuncs.py',
   'PYMODULE'),
  ('numpy.f2py.f90mod_rules',
   'c:\\users\\vitor\\documents\\code '
   'projects\\locus\\pyenv\\lib\\site-packages\\numpy\\f2py\\f90mod_rules.py',
   'PYMODULE'),
  ('numpy.f2py.rules',
   'c:\\users\\vitor\\documents\\code '
   'projects\\locus\\pyenv\\lib\\site-packages\\numpy\\f2py\\rules.py',
   'PYMODULE'),
  ('numpy.f2py.use_rules',
   'c:\\users\\vitor\\documents\\code '
   'projects\\locus\\pyenv\\lib\\site-packages\\numpy\\f2py\\use_rules.py',
   'PYMODULE'),
  ('numpy.f2py.common_rules',
   'c:\\users\\vitor\\documents\\code '
   'projects\\locus\\pyenv\\lib\\site-packages\\numpy\\f2py\\common_rules.py',
   'PYMODULE'),
  ('numpy.f2py.func2subr',
   'c:\\users\\vitor\\documents\\code '
   'projects\\locus\\pyenv\\lib\\site-packages\\numpy\\f2py\\func2subr.py',
   'PYMODULE'),
  ('numpy.f2py.crackfortran',
   'c:\\users\\vitor\\documents\\code '
   'projects\\locus\\pyenv\\lib\\site-packages\\numpy\\f2py\\crackfortran.py',
   'PYMODULE'),
  ('fileinput',
   'C:\\Users\\vitor\\AppData\\Local\\Programs\\Python\\Python36\\lib\\fileinput.py',
   'PYMODULE'),
  ('numpy.f2py.cb_rules',
   'c:\\users\\vitor\\documents\\code '
   'projects\\locus\\pyenv\\lib\\site-packages\\numpy\\f2py\\cb_rules.py',
   'PYMODULE'),
  ('numpy.f2py.capi_maps',
   'c:\\users\\vitor\\documents\\code '
   'projects\\locus\\pyenv\\lib\\site-packages\\numpy\\f2py\\capi_maps.py',
   'PYMODULE'),
  ('numpy.f2py.cfuncs',
   'c:\\users\\vitor\\documents\\code '
   'projects\\locus\\pyenv\\lib\\site-packages\\numpy\\f2py\\cfuncs.py',
   'PYMODULE'),
  ('numpy.f2py.__version__',
   'c:\\users\\vitor\\documents\\code '
   'projects\\locus\\pyenv\\lib\\site-packages\\numpy\\f2py\\__version__.py',
   'PYMODULE'),
  ('numpy.distutils.command.build_py',
   'c:\\users\\vitor\\documents\\code '
   'projects\\locus\\pyenv\\lib\\site-packages\\numpy\\distutils\\command\\build_py.py',
   'PYMODULE'),
  ('distutils.command.build_py',
   'C:\\Users\\vitor\\AppData\\Local\\Programs\\Python\\Python36\\lib\\distutils\\command\\build_py.py',
   'PYMODULE'),
  ('numpy.distutils.command.build',
   'c:\\users\\vitor\\documents\\code '
   'projects\\locus\\pyenv\\lib\\site-packages\\numpy\\distutils\\command\\build.py',
   'PYMODULE'),
  ('distutils.command.build',
   'C:\\Users\\vitor\\AppData\\Local\\Programs\\Python\\Python36\\lib\\distutils\\command\\build.py',
   'PYMODULE'),
  ('numpy.distutils.command.config',
   'c:\\users\\vitor\\documents\\code '
   'projects\\locus\\pyenv\\lib\\site-packages\\numpy\\distutils\\command\\config.py',
   'PYMODULE'),
  ('numpy.distutils.command.autodist',
   'c:\\users\\vitor\\documents\\code '
   'projects\\locus\\pyenv\\lib\\site-packages\\numpy\\distutils\\command\\autodist.py',
   'PYMODULE'),
  ('numpy.distutils.mingw32ccompiler',
   'c:\\users\\vitor\\documents\\code '
   'projects\\locus\\pyenv\\lib\\site-packages\\numpy\\distutils\\mingw32ccompiler.py',
   'PYMODULE'),
  ('distutils.msvccompiler',
   'C:\\Users\\vitor\\AppData\\Local\\Programs\\Python\\Python36\\lib\\distutils\\msvccompiler.py',
   'PYMODULE'),
  ('distutils.unixccompiler',
   'C:\\Users\\vitor\\AppData\\Local\\Programs\\Python\\Python36\\lib\\distutils\\unixccompiler.py',
   'PYMODULE'),
  ('distutils.cygwinccompiler',
   'C:\\Users\\vitor\\AppData\\Local\\Programs\\Python\\Python36\\lib\\distutils\\cygwinccompiler.py',
   'PYMODULE'),
  ('distutils.command.config',
   'C:\\Users\\vitor\\AppData\\Local\\Programs\\Python\\Python36\\lib\\distutils\\command\\config.py',
   'PYMODULE'),
  ('distutils.core',
   'C:\\Users\\vitor\\AppData\\Local\\Programs\\Python\\Python36\\lib\\distutils\\core.py',
   'PYMODULE'),
  ('distutils.config',
   'C:\\Users\\vitor\\AppData\\Local\\Programs\\Python\\Python36\\lib\\distutils\\config.py',
   'PYMODULE'),
  ('cgi',
   'C:\\Users\\vitor\\AppData\\Local\\Programs\\Python\\Python36\\lib\\cgi.py',
   'PYMODULE'),
  ('distutils.dist',
   'C:\\Users\\vitor\\AppData\\Local\\Programs\\Python\\Python36\\lib\\distutils\\dist.py',
   'PYMODULE'),
  ('distutils.versionpredicate',
   'C:\\Users\\vitor\\AppData\\Local\\Programs\\Python\\Python36\\lib\\distutils\\versionpredicate.py',
   'PYMODULE'),
  ('numpy.distutils.core',
   'c:\\users\\vitor\\documents\\code '
   'projects\\locus\\pyenv\\lib\\site-packages\\numpy\\distutils\\core.py',
   'PYMODULE'),
  ('numpy.distutils.numpy_distribution',
   'c:\\users\\vitor\\documents\\code '
   'projects\\locus\\pyenv\\lib\\site-packages\\numpy\\distutils\\numpy_distribution.py',
   'PYMODULE'),
  ('numpy.distutils.extension',
   'c:\\users\\vitor\\documents\\code '
   'projects\\locus\\pyenv\\lib\\site-packages\\numpy\\distutils\\extension.py',
   'PYMODULE'),
  ('numpy.distutils.exec_command',
   'c:\\users\\vitor\\documents\\code '
   'projects\\locus\\pyenv\\lib\\site-packages\\numpy\\distutils\\exec_command.py',
   'PYMODULE'),
  ('numpy.distutils.environment',
   'c:\\users\\vitor\\documents\\code '
   'projects\\locus\\pyenv\\lib\\site-packages\\numpy\\distutils\\environment.py',
   'PYMODULE'),
  ('numpy.distutils.misc_util',
   'c:\\users\\vitor\\documents\\code '
   'projects\\locus\\pyenv\\lib\\site-packages\\numpy\\distutils\\misc_util.py',
   'PYMODULE'),
  ('curses',
   'C:\\Users\\vitor\\AppData\\Local\\Programs\\Python\\Python36\\lib\\curses\\__init__.py',
   'PYMODULE'),
  ('curses.has_key',
   'C:\\Users\\vitor\\AppData\\Local\\Programs\\Python\\Python36\\lib\\curses\\has_key.py',
   'PYMODULE'),
  ('numpy.distutils.__config__',
   'c:\\users\\vitor\\documents\\code '
   'projects\\locus\\pyenv\\lib\\site-packages\\numpy\\distutils\\__config__.py',
   'PYMODULE'),
  ('numpy.distutils.npy_pkg_config',
   'c:\\users\\vitor\\documents\\code '
   'projects\\locus\\pyenv\\lib\\site-packages\\numpy\\distutils\\npy_pkg_config.py',
   'PYMODULE'),
  ('numpy.distutils.info',
   'c:\\users\\vitor\\documents\\code '
   'projects\\locus\\pyenv\\lib\\site-packages\\numpy\\distutils\\info.py',
   'PYMODULE'),
  ('numpy.distutils.unixccompiler',
   'c:\\users\\vitor\\documents\\code '
   'projects\\locus\\pyenv\\lib\\site-packages\\numpy\\distutils\\unixccompiler.py',
   'PYMODULE'),
  ('numpy.distutils.ccompiler',
   'c:\\users\\vitor\\documents\\code '
   'projects\\locus\\pyenv\\lib\\site-packages\\numpy\\distutils\\ccompiler.py',
   'PYMODULE'),
  ('numpy.distutils.lib2def',
   'c:\\users\\vitor\\documents\\code '
   'projects\\locus\\pyenv\\lib\\site-packages\\numpy\\distutils\\lib2def.py',
   'PYMODULE'),
  ('numpy.distutils.log',
   'c:\\users\\vitor\\documents\\code '
   'projects\\locus\\pyenv\\lib\\site-packages\\numpy\\distutils\\log.py',
   'PYMODULE'),
  ('numpy.distutils.__version__',
   'c:\\users\\vitor\\documents\\code '
   'projects\\locus\\pyenv\\lib\\site-packages\\numpy\\distutils\\__version__.py',
   'PYMODULE'),
  ('numpy.linalg.linalg',
   'c:\\users\\vitor\\documents\\code '
   'projects\\locus\\pyenv\\lib\\site-packages\\numpy\\linalg\\linalg.py',
   'PYMODULE'),
  ('numpy.linalg.info',
   'c:\\users\\vitor\\documents\\code '
   'projects\\locus\\pyenv\\lib\\site-packages\\numpy\\linalg\\info.py',
   'PYMODULE'),
  ('matplotlib.path',
   'c:\\users\\vitor\\documents\\code '
   'projects\\locus\\pyenv\\lib\\site-packages\\matplotlib\\path.py',
   'PYMODULE'),
  ('matplotlib.hatch',
   'c:\\users\\vitor\\documents\\code '
   'projects\\locus\\pyenv\\lib\\site-packages\\matplotlib\\hatch.py',
   'PYMODULE'),
  ('matplotlib.mathtext',
   'c:\\users\\vitor\\documents\\code '
   'projects\\locus\\pyenv\\lib\\site-packages\\matplotlib\\mathtext.py',
   'PYMODULE'),
  ('matplotlib.figure',
   'c:\\users\\vitor\\documents\\code '
   'projects\\locus\\pyenv\\lib\\site-packages\\matplotlib\\figure.py',
   'PYMODULE'),
  ('matplotlib.tight_layout',
   'c:\\users\\vitor\\documents\\code '
   'projects\\locus\\pyenv\\lib\\site-packages\\matplotlib\\tight_layout.py',
   'PYMODULE'),
  ('matplotlib._constrained_layout',
   'c:\\users\\vitor\\documents\\code '
   'projects\\locus\\pyenv\\lib\\site-packages\\matplotlib\\_constrained_layout.py',
   'PYMODULE'),
  ('matplotlib._pylab_helpers',
   'c:\\users\\vitor\\documents\\code '
   'projects\\locus\\pyenv\\lib\\site-packages\\matplotlib\\_pylab_helpers.py',
   'PYMODULE'),
  ('matplotlib.backends.backend_webagg',
   'c:\\users\\vitor\\documents\\code '
   'projects\\locus\\pyenv\\lib\\site-packages\\matplotlib\\backends\\backend_webagg.py',
   'PYMODULE'),
  ('matplotlib.backends.backend_webagg_core',
   'c:\\users\\vitor\\documents\\code '
   'projects\\locus\\pyenv\\lib\\site-packages\\matplotlib\\backends\\backend_webagg_core.py',
   'PYMODULE'),
  ('json',
   'C:\\Users\\vitor\\AppData\\Local\\Programs\\Python\\Python36\\lib\\json\\__init__.py',
   'PYMODULE'),
  ('json.encoder',
   'C:\\Users\\vitor\\AppData\\Local\\Programs\\Python\\Python36\\lib\\json\\encoder.py',
   'PYMODULE'),
  ('json.decoder',
   'C:\\Users\\vitor\\AppData\\Local\\Programs\\Python\\Python36\\lib\\json\\decoder.py',
   'PYMODULE'),
  ('json.scanner',
   'C:\\Users\\vitor\\AppData\\Local\\Programs\\Python\\Python36\\lib\\json\\scanner.py',
   'PYMODULE'),
  ('matplotlib._layoutbox',
   'c:\\users\\vitor\\documents\\code '
   'projects\\locus\\pyenv\\lib\\site-packages\\matplotlib\\_layoutbox.py',
   'PYMODULE'),
  ('matplotlib.text',
   'c:\\users\\vitor\\documents\\code '
   'projects\\locus\\pyenv\\lib\\site-packages\\matplotlib\\text.py',
   'PYMODULE'),
  ('matplotlib.offsetbox',
   'c:\\users\\vitor\\documents\\code '
   'projects\\locus\\pyenv\\lib\\site-packages\\matplotlib\\offsetbox.py',
   'PYMODULE'),
  ('matplotlib.patheffects',
   'c:\\users\\vitor\\documents\\code '
   'projects\\locus\\pyenv\\lib\\site-packages\\matplotlib\\patheffects.py',
   'PYMODULE'),
  ('matplotlib.textpath',
   'c:\\users\\vitor\\documents\\code '
   'projects\\locus\\pyenv\\lib\\site-packages\\matplotlib\\textpath.py',
   'PYMODULE'),
  ('matplotlib.texmanager',
   'c:\\users\\vitor\\documents\\code '
   'projects\\locus\\pyenv\\lib\\site-packages\\matplotlib\\texmanager.py',
   'PYMODULE'),
  ('matplotlib.dviread',
   'c:\\users\\vitor\\documents\\code '
   'projects\\locus\\pyenv\\lib\\site-packages\\matplotlib\\dviread.py',
   'PYMODULE'),
  ('matplotlib.lines',
   'c:\\users\\vitor\\documents\\code '
   'projects\\locus\\pyenv\\lib\\site-packages\\matplotlib\\lines.py',
   'PYMODULE'),
  ('matplotlib.markers',
   'c:\\users\\vitor\\documents\\code '
   'projects\\locus\\pyenv\\lib\\site-packages\\matplotlib\\markers.py',
   'PYMODULE'),
  ('matplotlib.projections',
   'c:\\users\\vitor\\documents\\code '
   'projects\\locus\\pyenv\\lib\\site-packages\\matplotlib\\projections\\__init__.py',
   'PYMODULE'),
  ('matplotlib.projections.polar',
   'c:\\users\\vitor\\documents\\code '
   'projects\\locus\\pyenv\\lib\\site-packages\\matplotlib\\projections\\polar.py',
   'PYMODULE'),
  ('matplotlib.spines',
   'c:\\users\\vitor\\documents\\code '
   'projects\\locus\\pyenv\\lib\\site-packages\\matplotlib\\spines.py',
   'PYMODULE'),
  ('matplotlib.ticker',
   'c:\\users\\vitor\\documents\\code '
   'projects\\locus\\pyenv\\lib\\site-packages\\matplotlib\\ticker.py',
   'PYMODULE'),
  ('matplotlib.axis',
   'c:\\users\\vitor\\documents\\code '
   'projects\\locus\\pyenv\\lib\\site-packages\\matplotlib\\axis.py',
   'PYMODULE'),
  ('dateutil.tz',
   'c:\\users\\vitor\\documents\\code '
   'projects\\locus\\pyenv\\lib\\site-packages\\dateutil\\tz\\__init__.py',
   'PYMODULE'),
  ('dateutil.tz.tz',
   'c:\\users\\vitor\\documents\\code '
   'projects\\locus\\pyenv\\lib\\site-packages\\dateutil\\tz\\tz.py',
   'PYMODULE'),
  ('dateutil.zoneinfo',
   'c:\\users\\vitor\\documents\\code '
   'projects\\locus\\pyenv\\lib\\site-packages\\dateutil\\zoneinfo\\__init__.py',
   'PYMODULE'),
  ('dateutil.rrule',
   'c:\\users\\vitor\\documents\\code '
   'projects\\locus\\pyenv\\lib\\site-packages\\dateutil\\rrule.py',
   'PYMODULE'),
  ('dateutil.easter',
   'c:\\users\\vitor\\documents\\code '
   'projects\\locus\\pyenv\\lib\\site-packages\\dateutil\\easter.py',
   'PYMODULE'),
  ('dateutil._common',
   'c:\\users\\vitor\\documents\\code '
   'projects\\locus\\pyenv\\lib\\site-packages\\dateutil\\_common.py',
   'PYMODULE'),
  ('fractions',
   'C:\\Users\\vitor\\AppData\\Local\\Programs\\Python\\Python36\\lib\\fractions.py',
   'PYMODULE'),
  ('dateutil.parser._parser',
   'c:\\users\\vitor\\documents\\code '
   'projects\\locus\\pyenv\\lib\\site-packages\\dateutil\\parser\\_parser.py',
   'PYMODULE'),
  ('dateutil.parser',
   'c:\\users\\vitor\\documents\\code '
   'projects\\locus\\pyenv\\lib\\site-packages\\dateutil\\parser\\__init__.py',
   'PYMODULE'),
  ('dateutil.parser.isoparser',
   'c:\\users\\vitor\\documents\\code '
   'projects\\locus\\pyenv\\lib\\site-packages\\dateutil\\parser\\isoparser.py',
   'PYMODULE'),
  ('dateutil.relativedelta',
   'c:\\users\\vitor\\documents\\code '
   'projects\\locus\\pyenv\\lib\\site-packages\\dateutil\\relativedelta.py',
   'PYMODULE'),
  ('dateutil.tz.win',
   'c:\\users\\vitor\\documents\\code '
   'projects\\locus\\pyenv\\lib\\site-packages\\dateutil\\tz\\win.py',
   'PYMODULE'),
  ('dateutil.tz._factories',
   'c:\\users\\vitor\\documents\\code '
   'projects\\locus\\pyenv\\lib\\site-packages\\dateutil\\tz\\_factories.py',
   'PYMODULE'),
  ('dateutil.tz._common',
   'c:\\users\\vitor\\documents\\code '
   'projects\\locus\\pyenv\\lib\\site-packages\\dateutil\\tz\\_common.py',
   'PYMODULE'),
  ('six',
   'c:\\users\\vitor\\documents\\code '
   'projects\\locus\\pyenv\\lib\\site-packages\\six.py',
   'PYMODULE'),
  ('dateutil',
   'c:\\users\\vitor\\documents\\code '
   'projects\\locus\\pyenv\\lib\\site-packages\\dateutil\\__init__.py',
   'PYMODULE'),
  ('dateutil._version',
   'c:\\users\\vitor\\documents\\code '
   'projects\\locus\\pyenv\\lib\\site-packages\\dateutil\\_version.py',
   'PYMODULE'),
  ('matplotlib.units',
   'c:\\users\\vitor\\documents\\code '
   'projects\\locus\\pyenv\\lib\\site-packages\\matplotlib\\units.py',
   'PYMODULE'),
  ('matplotlib.scale',
   'c:\\users\\vitor\\documents\\code '
   'projects\\locus\\pyenv\\lib\\site-packages\\matplotlib\\scale.py',
   'PYMODULE'),
  ('matplotlib.projections.geo',
   'c:\\users\\vitor\\documents\\code '
   'projects\\locus\\pyenv\\lib\\site-packages\\matplotlib\\projections\\geo.py',
   'PYMODULE'),
  ('matplotlib.legend',
   'c:\\users\\vitor\\documents\\code '
   'projects\\locus\\pyenv\\lib\\site-packages\\matplotlib\\legend.py',
   'PYMODULE'),
  ('matplotlib.legend_handler',
   'c:\\users\\vitor\\documents\\code '
   'projects\\locus\\pyenv\\lib\\site-packages\\matplotlib\\legend_handler.py',
   'PYMODULE'),
  ('matplotlib.container',
   'c:\\users\\vitor\\documents\\code '
   'projects\\locus\\pyenv\\lib\\site-packages\\matplotlib\\container.py',
   'PYMODULE'),
  ('matplotlib.collections',
   'c:\\users\\vitor\\documents\\code '
   'projects\\locus\\pyenv\\lib\\site-packages\\matplotlib\\collections.py',
   'PYMODULE'),
  ('matplotlib.cm',
   'c:\\users\\vitor\\documents\\code '
   'projects\\locus\\pyenv\\lib\\site-packages\\matplotlib\\cm.py',
   'PYMODULE'),
  ('matplotlib._cm_listed',
   'c:\\users\\vitor\\documents\\code '
   'projects\\locus\\pyenv\\lib\\site-packages\\matplotlib\\_cm_listed.py',
   'PYMODULE'),
  ('matplotlib._cm',
   'c:\\users\\vitor\\documents\\code '
   'projects\\locus\\pyenv\\lib\\site-packages\\matplotlib\\_cm.py',
   'PYMODULE'),
  ('matplotlib.gridspec',
   'c:\\users\\vitor\\documents\\code '
   'projects\\locus\\pyenv\\lib\\site-packages\\matplotlib\\gridspec.py',
   'PYMODULE'),
  ('matplotlib.blocking_input',
   'c:\\users\\vitor\\documents\\code '
   'projects\\locus\\pyenv\\lib\\site-packages\\matplotlib\\blocking_input.py',
   'PYMODULE'),
  ('matplotlib.axes',
   'c:\\users\\vitor\\documents\\code '
   'projects\\locus\\pyenv\\lib\\site-packages\\matplotlib\\axes\\__init__.py',
   'PYMODULE'),
  ('matplotlib.axes._axes',
   'c:\\users\\vitor\\documents\\code '
   'projects\\locus\\pyenv\\lib\\site-packages\\matplotlib\\axes\\_axes.py',
   'PYMODULE'),
  ('matplotlib.axes._base',
   'c:\\users\\vitor\\documents\\code '
   'projects\\locus\\pyenv\\lib\\site-packages\\matplotlib\\axes\\_base.py',
   'PYMODULE'),
  ('matplotlib.rcsetup',
   'c:\\users\\vitor\\documents\\code '
   'projects\\locus\\pyenv\\lib\\site-packages\\matplotlib\\rcsetup.py',
   'PYMODULE'),
  ('cycler',
   'c:\\users\\vitor\\documents\\code '
   'projects\\locus\\pyenv\\lib\\site-packages\\cycler.py',
   'PYMODULE'),
  ('matplotlib.fontconfig_pattern',
   'c:\\users\\vitor\\documents\\code '
   'projects\\locus\\pyenv\\lib\\site-packages\\matplotlib\\fontconfig_pattern.py',
   'PYMODULE'),
  ('matplotlib.tri',
   'c:\\users\\vitor\\documents\\code '
   'projects\\locus\\pyenv\\lib\\site-packages\\matplotlib\\tri\\__init__.py',
   'PYMODULE'),
  ('matplotlib.tri.triplot',
   'c:\\users\\vitor\\documents\\code '
   'projects\\locus\\pyenv\\lib\\site-packages\\matplotlib\\tri\\triplot.py',
   'PYMODULE'),
  ('matplotlib.tri.tripcolor',
   'c:\\users\\vitor\\documents\\code '
   'projects\\locus\\pyenv\\lib\\site-packages\\matplotlib\\tri\\tripcolor.py',
   'PYMODULE'),
  ('matplotlib.tri.trirefine',
   'c:\\users\\vitor\\documents\\code '
   'projects\\locus\\pyenv\\lib\\site-packages\\matplotlib\\tri\\trirefine.py',
   'PYMODULE'),
  ('matplotlib.tri.triinterpolate',
   'c:\\users\\vitor\\documents\\code '
   'projects\\locus\\pyenv\\lib\\site-packages\\matplotlib\\tri\\triinterpolate.py',
   'PYMODULE'),
  ('matplotlib.tri.trifinder',
   'c:\\users\\vitor\\documents\\code '
   'projects\\locus\\pyenv\\lib\\site-packages\\matplotlib\\tri\\trifinder.py',
   'PYMODULE'),
  ('matplotlib.tri.tritools',
   'c:\\users\\vitor\\documents\\code '
   'projects\\locus\\pyenv\\lib\\site-packages\\matplotlib\\tri\\tritools.py',
   'PYMODULE'),
  ('matplotlib.tri.tricontour',
   'c:\\users\\vitor\\documents\\code '
   'projects\\locus\\pyenv\\lib\\site-packages\\matplotlib\\tri\\tricontour.py',
   'PYMODULE'),
  ('matplotlib.tri.triangulation',
   'c:\\users\\vitor\\documents\\code '
   'projects\\locus\\pyenv\\lib\\site-packages\\matplotlib\\tri\\triangulation.py',
   'PYMODULE'),
  ('matplotlib.table',
   'c:\\users\\vitor\\documents\\code '
   'projects\\locus\\pyenv\\lib\\site-packages\\matplotlib\\table.py',
   'PYMODULE'),
  ('matplotlib.streamplot',
   'c:\\users\\vitor\\documents\\code '
   'projects\\locus\\pyenv\\lib\\site-packages\\matplotlib\\streamplot.py',
   'PYMODULE'),
  ('matplotlib.stackplot',
   'c:\\users\\vitor\\documents\\code '
   'projects\\locus\\pyenv\\lib\\site-packages\\matplotlib\\stackplot.py',
   'PYMODULE'),
  ('matplotlib.quiver',
   'c:\\users\\vitor\\documents\\code '
   'projects\\locus\\pyenv\\lib\\site-packages\\matplotlib\\quiver.py',
   'PYMODULE'),
  ('matplotlib.mlab',
   'c:\\users\\vitor\\documents\\code '
   'projects\\locus\\pyenv\\lib\\site-packages\\matplotlib\\mlab.py',
   'PYMODULE'),
  ('csv',
   'C:\\Users\\vitor\\AppData\\Local\\Programs\\Python\\Python36\\lib\\csv.py',
   'PYMODULE'),
  ('matplotlib.dates',
   'c:\\users\\vitor\\documents\\code '
   'projects\\locus\\pyenv\\lib\\site-packages\\matplotlib\\dates.py',
   'PYMODULE'),
  ('matplotlib.category',
   'c:\\users\\vitor\\documents\\code '
   'projects\\locus\\pyenv\\lib\\site-packages\\matplotlib\\category.py',
   'PYMODULE'),
  ('matplotlib.contour',
   'c:\\users\\vitor\\documents\\code '
   'projects\\locus\\pyenv\\lib\\site-packages\\matplotlib\\contour.py',
   'PYMODULE'),
  ('matplotlib.axes._subplots',
   'c:\\users\\vitor\\documents\\code '
   'projects\\locus\\pyenv\\lib\\site-packages\\matplotlib\\axes\\_subplots.py',
   'PYMODULE'),
  ('matplotlib.colorbar',
   'c:\\users\\vitor\\documents\\code '
   'projects\\locus\\pyenv\\lib\\site-packages\\matplotlib\\colorbar.py',
   'PYMODULE'),
  ('matplotlib.image',
   'c:\\users\\vitor\\documents\\code '
   'projects\\locus\\pyenv\\lib\\site-packages\\matplotlib\\image.py',
   'PYMODULE'),
  ('matplotlib.artist',
   'c:\\users\\vitor\\documents\\code '
   'projects\\locus\\pyenv\\lib\\site-packages\\matplotlib\\artist.py',
   'PYMODULE'),
  ('matplotlib.docstring',
   'c:\\users\\vitor\\documents\\code '
   'projects\\locus\\pyenv\\lib\\site-packages\\matplotlib\\docstring.py',
   'PYMODULE'),
  ('matplotlib._mathtext_data',
   'c:\\users\\vitor\\documents\\code '
   'projects\\locus\\pyenv\\lib\\site-packages\\matplotlib\\_mathtext_data.py',
   'PYMODULE'),
  ('matplotlib.afm',
   'c:\\users\\vitor\\documents\\code '
   'projects\\locus\\pyenv\\lib\\site-packages\\matplotlib\\afm.py',
   'PYMODULE'),
  ('pyparsing',
   'c:\\users\\vitor\\documents\\code '
   'projects\\locus\\pyenv\\lib\\site-packages\\pyparsing.py',
   'PYMODULE'),
  ('matplotlib.font_manager',
   'c:\\users\\vitor\\documents\\code '
   'projects\\locus\\pyenv\\lib\\site-packages\\matplotlib\\font_manager.py',
   'PYMODULE'),
  ('matplotlib.backend_bases',
   'c:\\users\\vitor\\documents\\code '
   'projects\\locus\\pyenv\\lib\\site-packages\\matplotlib\\backend_bases.py',
   'PYMODULE'),
  ('matplotlib.widgets',
   'c:\\users\\vitor\\documents\\code '
   'projects\\locus\\pyenv\\lib\\site-packages\\matplotlib\\widgets.py',
   'PYMODULE'),
  ('matplotlib.tight_bbox',
   'c:\\users\\vitor\\documents\\code '
   'projects\\locus\\pyenv\\lib\\site-packages\\matplotlib\\tight_bbox.py',
   'PYMODULE'),
  ('matplotlib.backend_tools',
   'c:\\users\\vitor\\documents\\code '
   'projects\\locus\\pyenv\\lib\\site-packages\\matplotlib\\backend_tools.py',
   'PYMODULE'),
  ('matplotlib.cbook',
   'c:\\users\\vitor\\documents\\code '
   'projects\\locus\\pyenv\\lib\\site-packages\\matplotlib\\cbook\\__init__.py',
   'PYMODULE'),
  ('matplotlib.cbook.deprecation',
   'c:\\users\\vitor\\documents\\code '
   'projects\\locus\\pyenv\\lib\\site-packages\\matplotlib\\cbook\\deprecation.py',
   'PYMODULE'),
  ('matplotlib.backends._backend_tk',
   'c:\\users\\vitor\\documents\\code '
   'projects\\locus\\pyenv\\lib\\site-packages\\matplotlib\\backends\\_backend_tk.py',
   'PYMODULE'),
  ('tkinter.filedialog',
   'C:\\Users\\vitor\\AppData\\Local\\Programs\\Python\\Python36\\lib\\tkinter\\filedialog.py',
   'PYMODULE'),
  ('tkinter.commondialog',
   'C:\\Users\\vitor\\AppData\\Local\\Programs\\Python\\Python36\\lib\\tkinter\\commondialog.py',
   'PYMODULE'),
  ('tkinter.dialog',
   'C:\\Users\\vitor\\AppData\\Local\\Programs\\Python\\Python36\\lib\\tkinter\\dialog.py',
   'PYMODULE'),
  ('tkinter.messagebox',
   'C:\\Users\\vitor\\AppData\\Local\\Programs\\Python\\Python36\\lib\\tkinter\\messagebox.py',
   'PYMODULE'),
  ('matplotlib.backend_managers',
   'c:\\users\\vitor\\documents\\code '
   'projects\\locus\\pyenv\\lib\\site-packages\\matplotlib\\backend_managers.py',
   'PYMODULE'),
  ('tkinter.simpledialog',
   'C:\\Users\\vitor\\AppData\\Local\\Programs\\Python\\Python36\\lib\\tkinter\\simpledialog.py',
   'PYMODULE'),
  ('matplotlib.backends',
   'c:\\users\\vitor\\documents\\code '
   'projects\\locus\\pyenv\\lib\\site-packages\\matplotlib\\backends\\__init__.py',
   'PYMODULE'),
  ('matplotlib.backends.backend_template',
   'c:\\users\\vitor\\documents\\code '
   'projects\\locus\\pyenv\\lib\\site-packages\\matplotlib\\backends\\backend_template.py',
   'PYMODULE'),
  ('matplotlib.backends.backend_svg',
   'c:\\users\\vitor\\documents\\code '
   'projects\\locus\\pyenv\\lib\\site-packages\\matplotlib\\backends\\backend_svg.py',
   'PYMODULE'),
  ('matplotlib.backends.backend_mixed',
   'c:\\users\\vitor\\documents\\code '
   'projects\\locus\\pyenv\\lib\\site-packages\\matplotlib\\backends\\backend_mixed.py',
   'PYMODULE'),
  ('matplotlib.backends.backend_ps',
   'c:\\users\\vitor\\documents\\code '
   'projects\\locus\\pyenv\\lib\\site-packages\\matplotlib\\backends\\backend_ps.py',
   'PYMODULE'),
  ('matplotlib.backends.backend_pgf',
   'c:\\users\\vitor\\documents\\code '
   'projects\\locus\\pyenv\\lib\\site-packages\\matplotlib\\backends\\backend_pgf.py',
   'PYMODULE'),
  ('matplotlib.backends.backend_pdf',
   'c:\\users\\vitor\\documents\\code '
   'projects\\locus\\pyenv\\lib\\site-packages\\matplotlib\\backends\\backend_pdf.py',
   'PYMODULE'),
  ('matplotlib.type1font',
   'c:\\users\\vitor\\documents\\code '
   'projects\\locus\\pyenv\\lib\\site-packages\\matplotlib\\type1font.py',
   'PYMODULE'),
  ('matplotlib',
   'c:\\users\\vitor\\documents\\code '
   'projects\\locus\\pyenv\\lib\\site-packages\\matplotlib\\__init__.py',
   'PYMODULE'),
  ('matplotlib.style.core',
   'c:\\users\\vitor\\documents\\code '
   'projects\\locus\\pyenv\\lib\\site-packages\\matplotlib\\style\\core.py',
   'PYMODULE'),
  ('matplotlib.style',
   'c:\\users\\vitor\\documents\\code '
   'projects\\locus\\pyenv\\lib\\site-packages\\matplotlib\\style\\__init__.py',
   'PYMODULE'),
  ('matplotlib._version',
   'c:\\users\\vitor\\documents\\code '
   'projects\\locus\\pyenv\\lib\\site-packages\\matplotlib\\_version.py',
   'PYMODULE'),
  ('Locus',
   'C:\\Users\\vitor\\Documents\\Code projects\\Locus\\Locus.py',
   'PYMODULE'),
  ('tkinter',
   'C:\\Users\\vitor\\AppData\\Local\\Programs\\Python\\Python36\\lib\\tkinter\\__init__.py',
   'PYMODULE'),
  ('tkinter.constants',
   'C:\\Users\\vitor\\AppData\\Local\\Programs\\Python\\Python36\\lib\\tkinter\\constants.py',
   'PYMODULE'),
  ('matplotlib.patches',
   'c:\\users\\vitor\\documents\\code '
   'projects\\locus\\pyenv\\lib\\site-packages\\matplotlib\\patches.py',
   'PYMODULE'),
  ('matplotlib.bezier',
   'c:\\users\\vitor\\documents\\code '
   'projects\\locus\\pyenv\\lib\\site-packages\\matplotlib\\bezier.py',
   'PYMODULE'),
  ('matplotlib.pyplot',
   'c:\\users\\vitor\\documents\\code '
   'projects\\locus\\pyenv\\lib\\site-packages\\matplotlib\\pyplot.py',
   'PYMODULE'),
  ('numpy',
   'c:\\users\\vitor\\documents\\code '
   'projects\\locus\\pyenv\\lib\\site-packages\\numpy\\__init__.py',
   'PYMODULE'),
  ('numpy.ctypeslib',
   'c:\\users\\vitor\\documents\\code '
   'projects\\locus\\pyenv\\lib\\site-packages\\numpy\\ctypeslib.py',
   'PYMODULE'),
  ('numpy.random',
   'c:\\users\\vitor\\documents\\code '
   'projects\\locus\\pyenv\\lib\\site-packages\\numpy\\random\\__init__.py',
   'PYMODULE'),
  ('numpy.random.info',
   'c:\\users\\vitor\\documents\\code '
   'projects\\locus\\pyenv\\lib\\site-packages\\numpy\\random\\info.py',
   'PYMODULE'),
  ('numpy.polynomial',
   'c:\\users\\vitor\\documents\\code '
   'projects\\locus\\pyenv\\lib\\site-packages\\numpy\\polynomial\\__init__.py',
   'PYMODULE'),
  ('numpy.polynomial.laguerre',
   'c:\\users\\vitor\\documents\\code '
   'projects\\locus\\pyenv\\lib\\site-packages\\numpy\\polynomial\\laguerre.py',
   'PYMODULE'),
  ('numpy.polynomial._polybase',
   'c:\\users\\vitor\\documents\\code '
   'projects\\locus\\pyenv\\lib\\site-packages\\numpy\\polynomial\\_polybase.py',
   'PYMODULE'),
  ('numpy.polynomial.hermite_e',
   'c:\\users\\vitor\\documents\\code '
   'projects\\locus\\pyenv\\lib\\site-packages\\numpy\\polynomial\\hermite_e.py',
   'PYMODULE'),
  ('numpy.polynomial.hermite',
   'c:\\users\\vitor\\documents\\code '
   'projects\\locus\\pyenv\\lib\\site-packages\\numpy\\polynomial\\hermite.py',
   'PYMODULE'),
  ('numpy.polynomial.legendre',
   'c:\\users\\vitor\\documents\\code '
   'projects\\locus\\pyenv\\lib\\site-packages\\numpy\\polynomial\\legendre.py',
   'PYMODULE'),
  ('numpy.polynomial.chebyshev',
   'c:\\users\\vitor\\documents\\code '
   'projects\\locus\\pyenv\\lib\\site-packages\\numpy\\polynomial\\chebyshev.py',
   'PYMODULE'),
  ('numpy.polynomial.polynomial',
   'c:\\users\\vitor\\documents\\code '
   'projects\\locus\\pyenv\\lib\\site-packages\\numpy\\polynomial\\polynomial.py',
   'PYMODULE'),
  ('numpy.polynomial.polyutils',
   'c:\\users\\vitor\\documents\\code '
   'projects\\locus\\pyenv\\lib\\site-packages\\numpy\\polynomial\\polyutils.py',
   'PYMODULE'),
  ('numpy._distributor_init',
   'c:\\users\\vitor\\documents\\code '
   'projects\\locus\\pyenv\\lib\\site-packages\\numpy\\_distributor_init.py',
   'PYMODULE'),
  ('numpy.add_newdocs',
   'c:\\users\\vitor\\documents\\code '
   'projects\\locus\\pyenv\\lib\\site-packages\\numpy\\add_newdocs.py',
   'PYMODULE'),
  ('numpy._import_tools',
   'c:\\users\\vitor\\documents\\code '
   'projects\\locus\\pyenv\\lib\\site-packages\\numpy\\_import_tools.py',
   'PYMODULE'),
  ('numpy.__config__',
   'c:\\users\\vitor\\documents\\code '
   'projects\\locus\\pyenv\\lib\\site-packages\\numpy\\__config__.py',
   'PYMODULE')])
